FLAG,EMPLOYEE_ID,FULL_NAME,EMAIL,PHONE_NO,WORKPLACE,WORKAREA,DEPARTMENT_ID,DEPARTMENT_DESC_TH,COST_CODE,JOB_CODE,JOB_NAME_TH,SECT_CODE,SECT_NAME_TH
A,95410,นางสาว สุกัญญา สมประสงค์,95410@tmbbank.com,,Phetburi Office Floor 4|,|สามเสนใน,0800300000,ผลิตภัณฑ์ธุรกิจสินเชื่อรถยนต์,1300,003058,เจ้าหน้าที่ - ผลิตภัณฑ์ธุรกิจสินเชื่อรถยนต์ Campaign Support (O/S),000,
A,95411,นางสาว จารุวรรณ ถูกใจ,95411@tmbbank.com,,Phetburi Office Floor 4|,|ดินแดง,0800300000,ผลิตภัณฑ์ธุรกิจสินเชื่อรถยนต์,1300,003058,เจ้าหน้าที่ - ผลิตภัณฑ์ธุรกิจสินเชื่อรถยนต์ Campaign Support (O/S),000,
