FLAG,EMPLOYEE_ID
D,02893
D,02899
D,03360
D,03597
D,03614
D,03649
D,03820
D,04064
D,04077
D,04078
D,04100
D,04457
D,04816
D,04818
D,04992
D,04998
D,05057
D,05196
D,05262
D,05309
D,05387
D,05459
D,05478
D,05553
D,05779
D,06134
D,06269
D,06323
D,06373
D,06502
D,06549
D,06980
D,07026
D,07588
D,07600
D,07618
D,07722
D,07871
D,07910
D,07912
D,08305
D,08330
D,08446
D,09859
D,10334
D,10369
D,10890
D,11090
D,11127
D,11136
D,11265
D,11268
D,11485
D,11575
D,11600
D,11709
D,12079
D,12131
D,12673
D,12822
D,12931
D,13128
D,13259
D,13491
D,13760
D,14542
D,14544
D,14917
D,14919
D,15104
D,15109
D,15121
D,15199
D,15487
D,15489
D,15567
D,15652
D,15867
D,16008
D,16430
D,16481
D,17744
D,18146
D,18362
D,20019
D,20239
D,20562
D,20619
D,20638
D,20989
D,21046
D,22816
D,23106
D,23276
D,23784
D,24115
D,24615
D,25420
D,25480
D,25944
D,27081
D,27247
D,27554
D,28375
D,28668
D,28718
D,30003
D,30598
D,30671
D,30741
D,30877
D,31069
D,31267
D,31270
D,31783
D,32427
D,32503
D,33698
D,34425
D,40242
D,40254
D,40645
D,41489
D,42460
D,43029
D,43046
D,43759
D,44134
D,44173
D,44787
D,44842
D,45091
D,45147
D,45324
D,45874
D,45915
D,46198
D,46446
D,46502
D,46549
D,46640
D,46880
D,46911
D,47062
D,47177
D,47651
D,47823
D,47832
D,48286
D,48484
D,48681
D,49033
D,49175
D,49269
D,49453
D,49478
D,49484
D,50300
D,50506
D,50889
D,50905
D,51268
D,51547
D,51554
D,51595
D,51669
D,51707
D,51856
D,51884
D,51919
D,51935
D,51970
D,52039
D,52167
D,52173
D,52235
D,52494
D,52541
D,52778
D,52831
D,52921
D,52938
D,53094
D,53148
D,53270
D,53280
D,53281
D,53416
D,53428
D,53558
D,53636
D,53671
D,53762
D,53781
D,54050
D,54081
D,54101
D,54172
D,54366
D,54413
D,54468
D,54487
D,54495
D,54543
D,54576
D,54725
D,54774
D,54889
D,54895
D,55007
D,55114
D,55218
D,55297
D,55340
D,55350
D,55406
D,55515
D,55527
D,55534
D,55644
D,55850
D,55861
D,55897
D,56022
D,56292
D,56293
D,56393
D,56480
D,56484
D,56562
D,56712
D,56780
D,56884
D,56900
D,56947
D,56968
D,56983
D,57069
D,57076
D,57181
D,57266
D,57363
D,57394
D,57419
D,57436
D,57514
D,57586
D,57640
D,57649
D,57669
D,57673
D,57674
D,57677
D,57695
D,57755
D,57832
D,57858
D,57894
D,57895
D,57903
D,57926
D,58005
D,58029
D,58060
D,58077
D,58137
D,58161
D,58164
D,58195
D,58270
D,58308
D,58340
D,58342
D,58348
D,58354
D,58384
D,58394
D,58395
D,58415
D,58423
D,58427
D,58431
D,58460
D,58468
D,58469
D,58471
D,58478
D,58491
D,58502
D,58506
D,58509
D,58535
D,58536
D,58537
D,58564
D,58593
D,58607
D,80058
D,80077
D,80123
D,80147
D,80161
D,80172
D,80174
D,80223
D,80227
D,80228
D,80231
D,80277
D,80318
D,80353
D,80522
D,80561
D,80565
D,80633
D,80645
D,80726
D,80810
D,80873
D,80875
D,80892
D,80894
D,81017
D,81054
D,81056
D,81102
D,81108
D,81112
D,81243
D,81253
D,81259
D,81263
D,81308
D,81325
D,81363
D,81377
D,81393
D,81401
D,81420
D,81423
D,81426
D,81469
D,81565
D,81571
D,81576
D,81581
D,81628
D,81641
D,81650
D,81658
D,81662
D,81696
D,81704
D,81724
D,81728
D,81736
D,81741
D,81745
D,81746
D,81799
D,81819
D,81840
D,81848
D,81849
D,81854
D,81920
D,81957
D,81963
D,81965
D,81976
D,82064
D,82101
D,82141
D,82177
D,82225
D,82244
D,82246
D,82248
D,82270
D,82297
D,82370
D,82373
D,82387
D,82397
D,82412
D,82431
D,82458
D,82499
D,82535
D,82554
D,82571
D,82572
D,82579
D,82586
D,82604
D,82627
D,82681
D,82876
D,82896
D,82900
D,82911
D,82982
D,82990
D,83003
D,83144
D,83152
D,83170
D,83177
D,83293
D,83356
D,83415
D,83520
D,83554
D,83649
D,83663
D,83713
D,83778
D,83781
D,83795
D,83845
D,83866
D,83871
D,83900
D,83958
D,84104
D,84145
D,84150
D,84162
D,84190
D,84205
D,84272
D,84281
D,84345
D,84435
D,84438
D,84447
D,84472
D,84564
D,84581
D,84582
D,84617
D,84762
D,84764
D,84799
D,84813
D,85036
D,85064
D,85075
D,85104
D,85158
D,85165
D,85182
D,85184
D,85206
D,85305
D,85339
D,85384
D,85426
D,85437
D,85522
D,85565
D,85687
D,85725
D,85794
D,85900
D,85927
D,86040
D,86093
D,86126
D,86174
D,86185
D,86214
D,86232
D,86241
D,86242
D,86344
D,86519
D,86894
D,86903
D,86913
D,86916
D,87043
D,87054
D,87065
D,87066
D,87106
D,87117
D,87153
D,87166
D,87181
D,87218
D,87283
D,87371
D,87406
D,87410
D,87414
D,87433
D,87443
D,87471
D,87516
D,87519
D,87524
D,87527
D,87533
D,87542
D,87565
D,87599
D,87627
D,87707
D,87770
D,87771
D,87785
D,87912
D,87968
D,87977
D,87984
D,87999
D,88015
D,88017
D,88018
D,88087
D,88088
D,88094
D,88104
D,88162
D,88210
D,88249
D,88265
D,88309
D,88313
D,88349
D,88378
D,88387
D,88406
D,88435
D,88448
D,88485
D,88519
D,88520
D,88522
D,88539
D,88594
D,88595
D,88620
D,88646
D,88666
D,88682
D,88704
D,88723
D,88761
D,88768
D,88787
D,88844
D,88895
D,88946
D,89100
D,89115
D,89116
D,89162
D,89192
D,95075
D,95076
D,95273
D,95348
D,95376
D,95404
D,95446
D,95483
D,95515
D,95521
D,95524
D,95569
D,95665
D,95666
D,95669
D,95672
D,95673
D,95685
D,95698
D,95699
D,95724
D,95728
D,95738
D,95745
D,95746
D,95747
D,97092
D,97097
D,97107
D,97170
D,97209
D,97223
D,97308
D,97336
D,97337
D,RLO16
D,TA007
