FLAG,EMPLOYEE_ID,FULL_NAME,EMAIL,PHONE_NO,WORKPLACE,WORKAREA,DEPARTMENT_ID,DEPARTMENT_DESC_TH,COST_CODE,JOB_CODE,JOB_NAME_TH,SECT_CODE,SECT_NAME_TH
C,87986,นางสาว นิธินันท์ สุขท่าพูด,87986@tmbbank.com,022991476\77771476,Phetburi Office Floor 8|,กรุงเทพมหานคร|จตุจักร,1500200236,ปฏิบัติการประกันภัย,3556,00001876,เจ้าหน้าที่ปฏิบัติการและบริการ,000,
C,88004,นางสาว อินทร์ถวา ฤทธิธรรม,88004@tmbbank.com,022991531\77771531,Phetburi Office Floor 8|,กรุงเทพมหานคร|จตุจักร,1500200236,ปฏิบัติการประกันภัย,3556,00001877,เจ้าหน้าที่ปฏิบัติการและบริการ,000,
