FLAG,EMPLOYEE_ID,FULL_NAME,EMAIL,PHONE_NO,WORKPLACE,WORKAREA,DEPARTMENT_ID,DEPARTMENT_DESC_TH,COST_CODE,JOB_CODE,JOB_NAME_TH,SECT_CODE,SECT_NAME_TH
A,95597,นางสาว สิริลักษณ์ คำแหง,95597@tmbbank.com,,Phetburi Office Floor 5|,|บางกะปิ,0800010031,บริการลูกค้าธุรกิจสินเชื่อรถยนต์,5501,002912,เจ้าหน้าที่ - บริการลูกค้าธุรกิจสินเชื่อรถยนต์ (O/S),000,
A,95598,นาย ภัทรพล กัณหารุ่งเรือง,95598@tmbbank.com,,สำนักงานเขต|,|ดงกระทงยาม,1500200533,ตรวจสอบรายได้ลูกค้าก่อนอนุมัติสินเชื่อรถยนต์,3193,002910,เจ้าหน้าที่ตรวจสอบเครดิตภาคสนาม,000,
