FLAG,EMPLOYEE_ID
D,07146
D,07323
D,08613
D,09240
D,09376
D,09706
D,11887
D,12524
D,13116
D,16598
D,16609
D,17023
D,17582
D,19862
D,20954
D,21928
D,21961
D,24790
D,28935
D,30851
D,32338
D,33997
D,40749
D,40765
D,40980
D,41323
D,41696
D,41709
D,42375
D,42801
D,43161
D,44260
D,44360
D,44363
D,45045
D,45248
D,45435
D,45456
D,45717
D,45738
D,45867
D,45983
D,46147
D,46154
D,46161
D,46291
D,46481
D,47330
D,47694
D,47700
D,48010
D,48300
D,48311
D,48406
D,48645
D,48652
D,48708
D,48863
D,49024
D,49081
D,49124
D,49326
D,49467
D,49545
D,49591
D,49745
D,49749
D,50059
D,50156
D,50218
D,50345
D,50391
D,50468
D,50483
D,50514
D,50593
D,50687
D,50802
D,50804
D,50863
D,51032
D,51062
D,51135
D,51196
D,51274
D,51360
D,51548
D,51682
D,51948
D,52163
D,52166
D,52188
D,52406
D,52447
D,52471
D,52523
D,52539
D,52548
D,52585
D,52645
D,52861
D,52871
D,52953
D,52980
D,53038
D,53057
D,53082
D,53109
D,53164
D,53215
D,53223
D,53226
D,53255
D,53293
D,53355
D,53412
D,53493
D,53551
D,53618
D,53774
D,53829
D,53841
D,53863
D,53894
D,53915
D,53936
D,53951
D,53954
D,54005
D,54083
D,54084
D,54100
D,54126
D,54192
D,54257
D,54286
D,54293
D,54311
D,54341
D,54345
D,54380
D,54408
D,54450
D,54501
D,54508
D,54523
D,54529
D,54562
D,54637
D,54653
D,54676
D,54720
D,54735
D,54740
D,54787
D,54803
D,54857
D,54876
D,54892
D,54898
D,54948
D,54949
D,55012
D,55103
D,55110
D,55117
D,55133
D,55158
D,55161
D,55165
D,55170
D,55172
D,55226
D,55243
D,55261
D,55354
D,55376
D,55408
D,55471
D,55480
D,55497
D,55499
D,55563
D,55603
D,55616
D,55651
D,55669
D,55672
D,55682
D,55704
D,55719
D,55732
D,55778
D,55844
D,55864
D,55873
D,55898
D,55899
D,55993
D,55998
D,56001
D,56006
D,56008
D,56031
D,56033
D,56036
D,56053
D,56115
D,56148
D,56151
D,56157
D,56163
D,56168
D,56208
D,56211
D,56217
D,56240
D,56260
D,56264
D,56265
D,56277
D,56278
D,56296
D,56314
D,56329
D,56332
D,56368
D,80102
D,80398
D,80490
D,80506
D,80600
D,80616
D,80697
D,80705
D,80753
D,80980
D,81190
D,81283
D,81301
D,81412
D,81592
D,81597
D,81789
D,82107
D,82377
D,82390
D,82485
D,82567
D,82735
D,82934
D,83218
D,83318
D,83394
D,83436
D,83565
D,83602
D,83747
D,83750
D,83759
D,84100
D,84106
D,84115
D,84380
D,84421
D,84440
D,84591
D,84654
D,84662
D,84873
D,85112
D,85221
D,85303
D,85310
D,85375
D,85534
D,85584
D,85682
D,85832
D,85849
D,85914
D,85926
D,85928
D,85977
D,85979
D,85997
D,86153
D,86297
D,86354
D,86356
D,86360
D,86503
D,86511
D,86522
D,86621
D,86634
D,86636
D,86646
D,86696
D,87019
D,87398
D,87608
D,87624
D,87737
D,87818
D,87916
D,87993
D,88239
D,88300
D,88399
D,88529
D,88591
D,88628
D,88662
D,88756
D,88869
D,89056
D,89149
D,95047
D,95125
D,95147
D,95270
D,95364
D,97025
D,97154
D,97186
D,97356
D,ITI25
D,ITI29
