FLAG,EMPLOYEE_ID,FULL_NAME,EMAIL,PHONE_NO,WORKPLACE,WORKAREA,DEPARTMENT_ID,DEPARTMENT_DESC_TH,COST_CODE,JOB_CODE,JOB_NAME_TH,SECT_CODE,SECT_NAME_TH
C,04078,นางสาว ลดาวัลย์ ตันติศิริไพบูลย์,04078@tmbbank.com,02-282-3451-2,สาขา|,กรุงเทพมหานคร|ราชเทวี,0000000909,สาขาสำนักเพชรบุรี,1870,002740,ผู้เชี่ยวชาญสร้างความสัมพันธ์ธุรกิจการเงิน,909,สาขาสำนักเพชรบุรี
C,09670,นาง จินตนา จันทร์สงวน,09670@tmbbank.com,032621990,สาขา|,กรุงเทพมหานคร|ดุสิต,0000000046,สาขาสนามเสือป่า,1870,000008,ผู้จัดการสาขา,046,สาขาสนามเสือป่า
C,11485,นาง วาสนา โพธิ์คูณ,11485@tmbbank.com,038617470,สาขา|,ระยอง|เมืองระยอง,0000000787,สาขาระยอง (ซอยนครระยอง 35),9280,002736,เจ้าหน้าที่ส่งเสริมธุรกิจสาขา,787,สาขาระยอง (ซอยนครระยอง 35)
C,13127,นาง รุ้งดาว พาเจริญ,13127@tmbbank.com,024258205,สาขา|,กรุงเทพมหานคร|พญาไท,0000000021,สาขาสนามเป้า,1870,000008,ผู้จัดการสาขา,021,สาขาสนามเป้า
C,15320,นางสาว ธิราพร ดวงประเสริฐ,15320@tmbbank.com,038-617470-4,สาขา|,ระยอง|เมืองระยอง,0000000787,สาขาระยอง (ซอยนครระยอง 35),9280,001925,ผู้ช่วยผู้จัดการสาขา,787,สาขาระยอง (ซอยนครระยอง 35)
C,17898,นางสาว ปานจันทร์ ศรอินทร์,17898@tmbbank.com,085/487-9862,สาขา|,ภูเก็ต|เมืองภูเก็ต,0000000974,สาขาโลตัส เจ้าฟ้า (ภูเก็ต),7890,000008,ผู้จัดการสาขา,974,สาขาโลตัส เจ้าฟ้า (ภูเก็ต)
C,22585,นาย พีระพจน์ เพ็งระแก้ว,22585@tmbbank.com,032526314,สาขา|,เพชรบุรี|ชะอำ,0000000982,สาขาชะอำ,7840,000008,ผู้จัดการสาขา,982,สาขาชะอำ
C,25341,นางสาว พิมพ์ประภา เกียรติโอฬาร,25341@tmbbank.com,076212123,สาขา|,ภูเก็ต|เมือง,0000000618,สาขาเซ็นทรัลภูเก็ต เฟสติวัล,7890,001925,ผู้ช่วยผู้จัดการสาขา,618,สาขาเซ็นทรัลภูเก็ต เฟสติวัล
C,30849,นางสาว กชกานต์ ถันกี่,30849@tmbbank.com,076212123,สาขา|,ภูเก็ต|เมือง,0000000495,สาขาโลตัส ภูเก็ต,7890,000401,เจ้าหน้าที่บริการลูกค้า,495,สาขาโลตัส ภูเก็ต
C,42095,นางสาว ภัทรนิดา เสริฐศรี,42095@tmbbank.com,,สาขา|,ภูเก็ต|เมือง,0000000618,สาขาเซ็นทรัลภูเก็ต เฟสติวัล,7890,003072,เจ้าหน้าที่อาวุโส - ส่งเสริมการลงทุน,618,สาขาเซ็นทรัลภูเก็ต เฟสติวัล
C,42344,นางสาว โชติกา จันทราหลวง,42344@tmbbank.com,,สาขา|,ภูเก็ต|เมือง,0000000495,สาขาโลตัส ภูเก็ต,7890,003072,เจ้าหน้าที่อาวุโส - ส่งเสริมการลงทุน,495,สาขาโลตัส ภูเก็ต
C,45454,นางสาว ลัลณ์ณิชา อัครเศรษฐบุตร์,45454@tmbbank.com,,สาขา|,ภูเก็ต|เมืองภูเก็ต,0000000788,สาขาภูเก็ต,7890,003077,เจ้าหน้าที่ - สินเชื่อบ้าน,788,สาขาภูเก็ต
C,46803,นางสาว สุวัชจณี พุฒทอง,46803@tmbbank.com,,สาขา|,ภูเก็ต|ถลาง,0000000406,สาขาถลาง,7890,002737,ผู้ช่วยเจ้าหน้าที่ส่งเสริมธุรกิจสาขา,406,สาขาถลาง
C,47768,นางสาว อัจฉริยา รำเพย,47768@tmbbank.com,,สาขา|,ภูเก็ต|เมือง,0000000618,สาขาเซ็นทรัลภูเก็ต เฟสติวัล,7890,000401,เจ้าหน้าที่บริการลูกค้า,618,สาขาเซ็นทรัลภูเก็ต เฟสติวัล
C,48271,นางสาว ทิวา วรวงษ์,48271@tmbbank.com,,สาขา|,ระยอง|เมืองระยอง,0000000787,สาขาระยอง (ซอยนครระยอง 35),9280,002736,เจ้าหน้าที่ส่งเสริมธุรกิจสาขา,787,สาขาระยอง (ซอยนครระยอง 35)
C,48592,นางสาว ณัฎฐนันท์ ธัญสุดาธนาวุฒิ,48592@tmbbank.com,,สาขา|,ระยอง|เมืองระยอง,0000000787,สาขาระยอง (ซอยนครระยอง 35),9280,003077,เจ้าหน้าที่ - สินเชื่อบ้าน,787,สาขาระยอง (ซอยนครระยอง 35)
C,52541,นาย ปิยะณัฐ ดำริรักษ์,52541@tmbbank.com,,สำนักงานใหญ่ ชั้น 8A|,กรุงเทพมหานคร|จตุจักร,1400000234,บริหารการเปลี่ยนแปลงเทคโนโลยีสารสนเทศ,2565,00047134,Senior IT Operation Associate,000,
C,52856,นางสาว จิราพร เขมะจารี,52856@tmbbank.com,,สาขา|,ประจวบคีรีขันธ์|หัวหิน,0000000594,สาขาบลูพอร์ต หัวหิน รีสอร์ท มอลล์,7840,002736,เจ้าหน้าที่ส่งเสริมธุรกิจสาขา,594,สาขาบลูพอร์ต หัวหิน รีสอร์ท มอลล์
C,53965,นางสาว จิดาภา เลายะรัตน์,53965@tmbbank.com,,สาขา|,ประจวบคีรีขันธ์|หัวหิน,0000000594,สาขาบลูพอร์ต หัวหิน รีสอร์ท มอลล์,7840,000401,เจ้าหน้าที่บริการลูกค้า,594,สาขาบลูพอร์ต หัวหิน รีสอร์ท มอลล์
C,54217,นางสาว นภัสวรรณ งามชม,54217@tmbbank.com,,สาขา|,ประจวบคีรีขันธ์|หัวหิน,0000000532,สาขาหัวหิน-ประจวบคีรีขันธ์,7840,000401,เจ้าหน้าที่บริการลูกค้า,532,สาขาหัวหิน-ประจวบคีรีขันธ์
C,54239,นางสาว จุฑารัตน์ ราญรอน,54239@tmbbank.com,,สาขา|,ระยอง|เมืองระยอง,0000000787,สาขาระยอง (ซอยนครระยอง 35),9280,000401,เจ้าหน้าที่บริการลูกค้า,787,สาขาระยอง (ซอยนครระยอง 35)
C,54538,นางสาว พินลดา ไกรภาษิต,54538@tmbbank.com,,สาขา|,กรุงเทพมหานคร|ลาดกระบัง,0000000279,สาขาบิ๊กซี เคหะร่มเกล้า,1890,000401,เจ้าหน้าที่บริการลูกค้า,279,สาขาบิ๊กซี เคหะร่มเกล้า
C,55479,นาย ภาวัต ฐิติภาศุภโชค,55479@tmbbank.com,,สาขา|,ภูเก็ต|เมืองภูเก็ต,0000000788,สาขาภูเก็ต,7890,000401,เจ้าหน้าที่บริการลูกค้า,788,สาขาภูเก็ต
C,55527,นางสาว สราลี รักษาพราหมณ์,55527@tmbbank.com,,สาขา|,สุราษฎร์ธานี|บ้านนาสาร,0000000323,สาขานาสาร,7860,000401,เจ้าหน้าที่บริการลูกค้า,323,สาขานาสาร
C,55657,นางสาว นุดี กรัษนัยรวิวงค์,55657@tmbbank.com,,สาขา|,สุราษฎร์ธานี|เมืองสุราษฎร์ธานี,0000000441,สาขาหน้าโรงพยาบาลสุราษฎร์ธานี,7860,000401,เจ้าหน้าที่บริการลูกค้า,441,สาขาหน้าโรงพยาบาลสุราษฎร์ธานี
C,56408,นางสาว สุกัญญา ชุ่มบาง,56408@tmbbank.com,,สาขา|,ประจวบคีรีขันธ์|หัวหิน,0000000594,สาขาบลูพอร์ต หัวหิน รีสอร์ท มอลล์,7840,000401,เจ้าหน้าที่บริการลูกค้า,594,สาขาบลูพอร์ต หัวหิน รีสอร์ท มอลล์
C,57041,นางสาว เกวลี อุธายีร์,57041@tmbbank.com,,สาขา|,สุราษฎร์ธานี|เคียนซา,0000000972,สาขาเคียนซา,7860,000401,เจ้าหน้าที่บริการลูกค้า,972,สาขาเคียนซา
C,57153,นางสาว สุภาวรรณ ทองนาค,57153@tmbbank.com,,สาขา|,ประจวบคีรีขันธ์|ปราณบุรี,0000000427,สาขาปราณบุรี,7840,000401,เจ้าหน้าที่บริการลูกค้า,427,สาขาปราณบุรี
C,82011,นางสาว พิมพ์รุ้ง จันทร์ไทย,82011@tmbbank.com,032604464,สาขา|,กรุงเทพมหานคร|พญาไท,0000000928,สาขาสนามเป้า (หน้าโรงพยาบาลพญาไท 2),1870,000008,ผู้จัดการสาขา,928,สาขาสนามเป้า (หน้าโรงพยาบาลพญาไท 2)
C,83202,นาย คมกฤษณ์ โอภาส,83202@tmbbank.com,02-543-9200-1,สาขา|,กรุงเทพมหานคร|หนองจอก,0000000034,สาขาหนองจอก,1890,001925,ผู้ช่วยผู้จัดการสาขา,034,สาขาหนองจอก
C,83208,นางสาว สุทัศนีย์ ศรีสรากรณ์,83208@tmbbank.com,0-2 327-8111-3,สาขา|,กรุงเทพมหานคร|ลาดกระบัง,0000000290,สาขาโรบินสัน ลาดกระบัง,1890,002737,ผู้ช่วยเจ้าหน้าที่ส่งเสริมธุรกิจสาขา,290,สาขาโรบินสัน ลาดกระบัง
C,83229,นาง พัชรนันท์ อุดมลาภอนันต์,83229@tmbbank.com,023259072-4,สาขา|,กรุงเทพมหานคร|ลาดกระบัง,0000000279,สาขาบิ๊กซี เคหะร่มเกล้า,1890,002736,เจ้าหน้าที่ส่งเสริมธุรกิจสาขา,279,สาขาบิ๊กซี เคหะร่มเกล้า
C,84502,นาง ณัฎฐินี มีใส,84502@tmbbank.com,032-621643,สาขา|,ประจวบคีรีขันธ์|ปราณบุรี,0000000427,สาขาปราณบุรี,7840,001925,ผู้ช่วยผู้จัดการสาขา,427,สาขาปราณบุรี
C,84535,นางสาว ธนารัตน์ วงษ์สุวรรณคูหา,84535@tmbbank.com,0 32621643,สาขา|,ประจวบคีรีขันธ์|หัวหิน,0000000594,สาขาบลูพอร์ต หัวหิน รีสอร์ท มอลล์,7840,000008,ผู้จัดการสาขา,594,สาขาบลูพอร์ต หัวหิน รีสอร์ท มอลล์
C,84538,นาง ภัชรีย์ เง่านิติกุลภักดี,84538@tmbbank.com,032621643,สาขา|,ประจวบคีรีขันธ์|ปราณบุรี,0000000427,สาขาปราณบุรี,7840,002735,เจ้าหน้าที่อาวุโสส่งเสริมธุรกิจสาขา,427,สาขาปราณบุรี
C,84540,นางสาว สุวิมล เกตุธิโภค,84540@tmbbank.com,0 3262 1643,สาขา|,ประจวบคีรีขันธ์|หัวหิน,0000000594,สาขาบลูพอร์ต หัวหิน รีสอร์ท มอลล์,7840,003074,เจ้าหน้าที่อาวุโส - สินเชื่อรถยนต์,594,สาขาบลูพอร์ต หัวหิน รีสอร์ท มอลล์
C,84555,นางสาว วรรณรวี หงส์แก้ว,84555@tmbbank.com,032311203,สาขา|,เพชรบุรี|บ้าานลาด,0000000521,สาขาโรบินสัน เพชรบุรี,7840,000008,ผู้จัดการสาขา,521,สาขาโรบินสัน เพชรบุรี
C,84565,นางสาว ยุพดี เพชรพลอย,84565@tmbbank.com,032511098,สาขา|,ประจวบคีรีขันธ์|หัวหิน,0000000532,สาขาหัวหิน-ประจวบคีรีขันธ์,7840,000008,ผู้จัดการสาขา,532,สาขาหัวหิน-ประจวบคีรีขันธ์
C,84566,นาง กัญญา จิตตะเสวีกุล,84566@tmbbank.com,032511098,สาขา|,ประจวบคีรีขันธ์|หัวหิน,0000000532,สาขาหัวหิน-ประจวบคีรีขันธ์,7840,001925,ผู้ช่วยผู้จัดการสาขา,532,สาขาหัวหิน-ประจวบคีรีขันธ์
C,84568,นาย จินดา เมืองงาม,84568@tmbbank.com,032511098,สาขา|,ประจวบคีรีขันธ์|หัวหิน,0000000532,สาขาหัวหิน-ประจวบคีรีขันธ์,7840,002735,เจ้าหน้าที่อาวุโสส่งเสริมธุรกิจสาขา,532,สาขาหัวหิน-ประจวบคีรีขันธ์
C,84569,นางสาว จิราภรณ์ คำสระ,84569@tmbbank.com,0 3262 1643,สาขา|,ประจวบคีรีขันธ์|หัวหิน,0000000532,สาขาหัวหิน-ประจวบคีรีขันธ์,7840,003074,เจ้าหน้าที่อาวุโส - สินเชื่อรถยนต์,532,สาขาหัวหิน-ประจวบคีรีขันธ์
C,84620,นาย กำธร พัฒน์ศรีทอง,84620@tmbbank.com,077311449,สาขา|,สุราษฎร์ธานี|บ้านนาสาร,0000000323,สาขานาสาร,7860,000008,ผู้จัดการสาขา,323,สาขานาสาร
C,84625,นางสาว นันทพรณ์ สุทิน,84625@tmbbank.com,077-359013,สาขา|,สุราษฎร์ธานี|บ้านนาสาร,0000000323,สาขานาสาร,7860,003075,เจ้าหน้าที่ - สินเชื่อรถยนต์,323,สาขานาสาร
C,84646,นาง พัชนี ถ้ำจันทร์,84646@tmbbank.com,0835920267,สาขา|,สุราษฎร์ธานี|เมืองสุราษฎร์ธานี,0000000767,สาขาถนนชนเกษม (สุราษฎร์ธานี),7860,002735,เจ้าหน้าที่อาวุโสส่งเสริมธุรกิจสาขา,767,สาขาถนนชนเกษม (สุราษฎร์ธานี)
C,85069,นาง ธัญวลัย อิทธิฤทธิ์มีชัย,85069@tmbbank.com,032-511098,สาขา|,ประจวบคีรีขันธ์|หัวหิน,0000000532,สาขาหัวหิน-ประจวบคีรีขันธ์,7840,002735,เจ้าหน้าที่อาวุโสส่งเสริมธุรกิจสาขา,532,สาขาหัวหิน-ประจวบคีรีขันธ์
C,85546,นางสาว ปัทมา ศรีพัฒน์,85546@tmbbank.com,0884627840,สาขา|,สุราษฎร์ธานี|เมือง,0000000587,สาขาบิ๊กซี สุราษฎร์ธานี,7860,002736,เจ้าหน้าที่ส่งเสริมธุรกิจสาขา,587,สาขาบิ๊กซี สุราษฎร์ธานี
