FLAG,EMPLOYEE_ID,FULL_NAME,EMAIL,PHONE_NO,WORKPLACE,WORKAREA,DEPARTMENT_ID,DEPARTMENT_DESC_TH,COST_CODE,JOB_CODE,JOB_NAME_TH,SECT_CODE,SECT_NAME_TH
C,26664,นางสาว พัทธ์ศรัณย์ หุ่นเจริญ,26664@tmbbank.com,022924647\77774647,สำนักงานใหญ่ ชั้น 13A|,กรุงเทพมหานคร|จตุจักร,0250400399,ประจำ บริหารความสัมพันธ์ลูกค้าบรรษัทธุรกิจ 2-3,5569,001713,ผู้จัดการสนับสนุนความสัมพันธ์,000,
A,56831,นางสาว ธุมาพร อรุณฤกษ์รัตน์,56831@tmbbank.com,,สำนักงานใหญ่ ชั้น 16A|,กรุงเทพมหานคร|จตุจักร,1100200131,บริหารความสัมพันธ์การสรรหาลูกค้าผลิตภัณฑ์ธุรกรรมธนาคาร บัตรเครดิต บัตรกดเงินสด,5281,000262,ผู้เชี่ยวชาญ - บริหารความสัมพันธ์และประสบการณ์ลูกค้า,000,
A,56877,นางสาว อมราพร วิมลกิตติพงศ์,56877@tmbbank.com,,Phetburi Office Floor 4|,กรุงเทพมหานคร|จตุจักร,0800100499,ประจำ สินเชื่อรถยนต์ธุรกิจขนาดใหญ่ ทีม 4,2909,000562,ผู้บริหารความสัมพันธ์,000,
