FLAG,EMPLOYEE_ID
D,04929
D,07146
D,11454
D,12876
D,14519
D,16425
D,16702
D,16951
D,18275
D,20237
D,21928
D,21961
D,22852
D,24893
D,25498
D,25525
D,27960
D,28339
D,28796
D,29206
D,29614
D,30490
D,31788
D,31829
D,32338
D,32615
D,32795
D,33376
D,33464
D,34004
D,40230
D,40749
D,41612
D,41709
D,42052
D,42375
D,42492
D,42602
D,43474
D,43559
D,44024
D,44136
D,44360
D,44363
D,44431
D,44517
D,45279
D,45373
D,45435
D,45660
D,45754
D,45862
D,46082
D,46147
D,46296
D,46862
D,46903
D,46992
D,47506
D,47515
D,47566
D,48126
D,48217
D,48291
D,48311
D,48469
D,48645
D,48676
D,48749
D,48923
D,49124
D,49136
D,49286
D,49295
D,49391
D,49509
D,49636
D,49749
D,49788
D,49794
D,50029
D,50056
D,50218
D,50345
D,50439
D,50514
D,50579
D,50593
D,50630
D,50687
D,50775
D,50827
D,50851
D,50863
D,50923
D,51138
D,51194
D,51196
D,51213
D,51222
D,51225
D,51274
D,51302
D,51353
D,51394
D,51598
D,51742
D,52146
D,52163
D,52198
D,52270
D,52421
D,52433
D,52483
D,52523
D,52561
D,52567
D,52640
D,52711
D,52718
D,52739
D,52744
D,52825
D,52966
D,53139
D,53164
D,53269
D,53334
D,53369
D,53449
D,53483
D,53498
D,53524
D,53627
D,53683
D,53692
D,53814
D,53819
D,53824
D,53854
D,53915
D,53994
D,54005
D,54008
D,54095
D,54160
D,54169
D,54199
D,54219
D,54248
D,54308
D,54323
D,54326
D,54336
D,54388
D,54486
D,54510
D,54676
D,54681
D,54732
D,54749
D,54762
D,54781
D,54801
D,54805
D,54841
D,54857
D,54878
D,54885
D,54898
D,54943
D,54948
D,54961
D,54973
D,54978
D,55005
D,55029
D,55103
D,55110
D,55126
D,55163
D,55171
D,55185
D,55191
D,55217
D,55229
D,55242
D,55357
D,55382
D,55389
D,55392
D,55497
D,55501
D,55528
D,55565
D,55571
D,55589
D,55597
D,55613
D,55616
D,55630
D,55676
D,55682
D,55712
D,55715
D,55800
D,55836
D,55873
D,55906
D,55923
D,55926
D,55950
D,55955
D,55963
D,55991
D,55998
D,56034
D,56075
D,56115
D,56122
D,56141
D,56150
D,56151
D,56163
D,56164
D,56199
D,56203
D,56215
D,56217
D,56237
D,56251
D,56277
D,56294
D,56322
D,56329
D,56332
D,56467
D,56469
D,56471
D,56473
D,56506
D,56528
D,56585
D,80345
D,80398
D,80490
D,80500
D,80567
D,80600
D,80705
D,80753
D,80844
D,80845
D,80851
D,80890
D,80922
D,80980
D,81000
D,81558
D,81597
D,81675
D,81796
D,81832
D,82025
D,82092
D,82118
D,82295
D,82316
D,82409
D,82512
D,82567
D,82743
D,83184
D,83389
D,83431
D,83593
D,83602
D,83616
D,83766
D,83910
D,83976
D,84039
D,84079
D,84324
D,84392
D,84624
D,84687
D,84846
D,84874
D,85076
D,85112
D,85132
D,85183
D,85213
D,85215
D,85229
D,85385
D,85409
D,85413
D,85534
D,85625
D,85626
D,85849
D,85946
D,85981
D,85991
D,86127
D,86276
D,86356
D,86360
D,86372
D,86381
D,86503
D,86510
D,86581
D,86696
D,86718
D,86904
D,86911
D,86955
D,87101
D,87556
D,87624
D,87713
D,87818
D,87847
D,87858
D,87873
D,87906
D,88099
D,88253
D,88285
D,88399
D,88572
D,88613
D,88617
D,88773
D,89056
D,89117
D,95173
D,95176
D,95270
D,95366
D,97025
D,97154
D,97249
D,97356
