FLAG,EMPLOYEE_ID,FULL_NAME,EMAIL,PHONE_NO,WORKPLACE,WORKAREA,DEPARTMENT_ID,DEPARTMENT_DESC_TH,COST_CODE,JOB_CODE,JOB_NAME_TH,SECT_CODE,SECT_NAME_TH
C,20944,นางสาว จุฑารัตน์ เซี่ยงฉิน,20944@tmbbank.com,022992591\77772591,สำนักงานใหญ่ ชั้น 22A|,กรุงเทพมหานคร|จตุจักร,0110400299,ประจำ บริหารข้อมูลและคุณภาพสินเชื่อที่ปรึกษาบริหารการเงินพิเศษ,3339,001888,ผู้เชี่ยวชาญ - บริหารข้อมูลและคุณภาพสินเชื่อ ทีปรึกษาบริหารการเงินพิเศษ,000,
C,24187,นางสาว สุดารัตน์ เลิศยงผาติ,24187@tmbbank.com,022423237\77773237,สำนักงานใหญ่ ชั้น 27A|,กรุงเทพมหานคร|จตุจักร,0101100699,ประจำ บริหารความเสี่ยงด้านปฏิบัติการธุรกิจ - ttb Spark,3209,003322,หัวหน้าบริหารความเสียงด้านปฏิบัติการธุรกิจ - ttb Spark,000,
A,31727,นางสาว ศุภัสฐิยา นานุช,31727@tmbbank.com,,สาขา|,กรุงเทพมหานคร|คลองสาน,0000000283,สาขาไอคอน สยาม,9270,003077,เจ้าหน้าที่ - สินเชื่อบ้าน,283,สาขาไอคอน สยาม
A,31854,นางสาว ณพิฏา ทรงกิตติคุณ,31854@tmbbank.com,022924355,สำนักงานใหญ่ ชั้น 16A|,กรุงเทพมหานคร|จตุจักร,1100200699,ประจำ บริหารความสัมพันธ์และประสบการณ์กลุ่มลูกค้าธนบดีและธนบดีธนกิจ,5529,000267,ผู้เชี่ยวชาญอาวุโส - บริหารความสัมพันธ์และประสบการณ์ลูกค้า,000,
A,32110,นาย ศิณาท วัฒนสิทธิ์,32110@tmbbank.com,022991111,สำนักงานใหญ่ ชั้น 12B|,กรุงเทพมหานคร|จตุจักร,1400400435,บริหารวิศวกรข้อมูล,2044,000454,Solution Architect,000,
A,32390,นาย กรกฤต มโนวงศ์,32390@tmbbank.com,053714886,Hub เชียงราย ชั้น 4|,เชียงราย|เมืองเชียงราย,0800203599,ประจำ งานขายและเครือข่ายธุรกิจสินเชื่อรถยนต์ - เขตเชียงราย,6359,002773,เจ้าหน้าที่ชำนาญการ - งานธุรกิจสินเชื่อรถยนต์,000,
A,32503,นางสาว ณิชาภา ชัยรินทร์,32503@tmbbank.com,,Jasmine International Tower|,กรุงเทพมหานคร|สวนหลวง,7000000333,ประกันภัยรายย่อย โครงการซิกน่า,7791,999156,เจ้าหน้าที่ - ประกันภัยรายย่อย โครงการซิกน่า,000,
A,34020,นางสาว นิศรา แก้วกุมาร,34020@tmbbank.com,,สาขา|,จันทบุรี|เมือง,0000000627,สาขาโรบินสัน จันทบุรี,9280,002736,เจ้าหน้าที่ส่งเสริมธุรกิจสาขา,627,สาขาโรบินสัน จันทบุรี
A,41443,นางสาว ปาณิสรา กฤษณพันธ์,41443@tmbbank.com,,RAMA7 Floor 5|,กรุงเทพมหานคร|จตุจักร,8000100334,เร่งรัดหนี้รายย่อยสินเชื่อรถยนต์ 4,1504,000791,เจ้าหน้าที่ - เร่งรัดหนี้รายย่อย,000,
A,41836,นาย สิทธิชัย บุญทันเรือง,41836@tmbbank.com,,สำนักงานใหญ่ ชั้น 18A|,กรุงเทพมหานคร|จตุจักร,0460000331,บริหารความเชี่ยวชาญด้านการลงทุนและความคุ้มครอง 1,5451,002756,เจ้าหน้าที่อาวุโส - ด้านความคุ้มครอง,000,
A,41958,นาย พุฒิพงศ์ จันทรรัศมี,41958@tmbbank.com,022991111  5919,สำนักงานใหญ่ ชั้น 3B|,กรุงเทพมหานคร|จตุจักร,1500100334,ปฏิบัติการเอกสารทางการค้า,3806,000018,เจ้าหน้าที่ปฏิบัติการและบริการ,000,
A,42387,นาย จักรพันธ์ หิรัญภูมิ,42387@tmbbank.com,,The Nine Floor 4 Zone F|,กรุงเทพมหานคร|สวนหลวง,7000000238,ประกันชีวิตรายย่อย,7791,999167,เจ้าหน้าที่ - ประกันชีวิตรายย่อย,000,
A,43025,นาย เริงฤทธิ์ การัยภูมิ,43025@tmbbank.com,,The Nine Floor 4 Zone D|,กรุงเทพมหานคร|สวนหลวง,7000000732,งานบริหารผลิตภัณฑ์ และงานวิเคราะห์ควบคุมคุณภาพ,7791,999067,เจ้าหน้าที่ชำนาญการ - วิเคราะห์และควบคุมคุณภาพ,000,
A,45649,นางสาว อัจฉริยะณัฐ ปรีชานนท์,45649@tmbbank.com,,The Nine Floor 4 Zone F|,กรุงเทพมหานคร|สวนหลวง,7000000238,ประกันชีวิตรายย่อย,7791,999167,เจ้าหน้าที่ - ประกันชีวิตรายย่อย,000,
C,45786,นาย เอกภพ ธราวรรณ,45786@tmbbank.com,022991111,สำนักงานใหญ่ ชั้น 12A|,กรุงเทพมหานคร|จตุจักร,0270200399,ประจำ บริหารความสัมพันธ์ลูกค้าบรรษัทธุรกิจ 1-14,6089,001373,ผู้ช่วยผู้จัดการ - บริการลูกค้าธุรกิจ,000,
A,49650,นางสาว กุลธิดา ปัจชามาตย์,49650@tmbbank.com,,สาขา|,กรุงเทพมหานคร|ห้วยขวาง,0000000100,สาขาเซ็นทรัลพลาซา แกรนด์ พระราม 9,6950,000401,เจ้าหน้าที่บริการลูกค้า,100,สาขาเซ็นทรัลพลาซา แกรนด์ พระราม 9
A,53134,นางสาว ณัฐนิชา โอพุ่ม,53134@tmbbank.com,,สาขา|,สงขลา|หาดใหญ่,0000000529,สาขาถนนจุติอนุสรณ์ หาดใหญ่,7870,000401,เจ้าหน้าที่บริการลูกค้า,529,สาขาถนนจุติอนุสรณ์ หาดใหญ่
A,53168,นางสาว เบญจมาศ น้อยอุทัย,53168@tmbbank.com,,สาขา|,กรุงเทพมหานคร|บางพลัด,0000000723,สาขาถนนสิรินธร,6930,000401,เจ้าหน้าที่บริการลูกค้า,723,สาขาถนนสิรินธร
A,53674,นางสาว วาทินี ทัดศรี,53674@tmbbank.com,,สาขา|,กรุงเทพมหานคร|ห้วยขวาง,0000000195,สาขาห้วยขวาง,6950,000401,เจ้าหน้าที่บริการลูกค้า,195,สาขาห้วยขวาง
A,56278,นาย ณัฐภัทร สถิตย์น้อย,56278@tmbbank.com,,สาขา|,สมุทรสงคราม|เมือง,0000000447,สาขาสมุทรสงคราม,7840,000401,เจ้าหน้าที่บริการลูกค้า,447,สาขาสมุทรสงคราม
C,56389,นางสาว วรรณภา กัมปนาท,56389@tmbbank.com,,Hub พิษณุโลก ชั้น 3|,พิษณุโลก|เมือง,0800203201,งานขายและเครือข่ายธุรกิจสินเชื่อรถยนต์ - พิษณุโลก 1,6321,002779,เจ้าหน้าที่ - สินเชื่อเช่าซื้อรถยนต์,000,
A,56624,นาย จักรินทร์ สมนิล,56624@tmbbank.com,,สำนักงานใหญ่ ชั้น 19A|,กรุงเทพมหานคร|จตุจักร,0101010131,ระบบงานส่งเสริมด้านดิจิตอลและเทคโนโลยี 1-1,2851,003031,Senior Tech Lead,000,
A,56664,นาง เพ็ญพร วุฒิเมธีกุล,56664@tmbbank.com,,สำนักงานใหญ่ ชั้น 28A|,กรุงเทพมหานคร|จตุจักร,0500400599,ประจำ กำกับกลุ่มกฎหมายฟอกเงิน,1139,002341,เจ้าหน้าที่ชำนาญการอาวุโส - งานกำกับกลุ่มกฎหมายฟอกเงิน,000,
A,56665,นางสาว ศิวาพร ธัญรัตนมงคล,56665@tmbbank.com,,Phetburi Office Floor 7|,กรุงเทพมหานคร|จตุจักร,1300030199,ประจำ ตรวจสอบเทคโนโลยีสารสนเทศทั่วไปและไอทีแอปพลิเคชัน,1239,002530,ผู้เชี่ยวชาญอาวุโส - ตรวจสอบเทคโนโลยีสารสนเทศ,000,
A,56691,นาย พิเชฐ จันทร์รัตนา,56691@tmbbank.com,,สำนักงานใหญ่ ชั้น 26A|,กรุงเทพมหานคร|จตุจักร,0500200599,ประจำ บริหารความเสี่ยงด้านตลาด - ข้อมูลและแบบจำลอง,2899,002336,ผู้เชี่ยวชาญอาวุโส – บริหารความเสี่ยงด้านตลาด ข้อมูลและแบบจำลอง,000,
A,56695,นางสาว พรรณราย สุทธินานนท์,56695@tmbbank.com,,สำนักงานใหญ่ ชั้น 9A|,กรุงเทพมหานคร|จตุจักร,1400300599,ประจำ โซลูชั่นระบบงาน Branch Operations และEnterprise Customer,3029,003348,System Analyst,000,
A,56714,นางสาว น้ำทิพย์ ไตรสถิตวร,56714@tmbbank.com,,สำนักงานใหญ่ ชั้น 2B|,กรุงเทพมหานคร|จตุจักร,1000000799,ประจำ บุคลากรและธุรกิจสัมพันธ์ 7,5329,003355,หัวหน้าบุคลากรและธุรกิจสัมพันธ์,000,
A,56743,นางสาว เปร์ ห่านตระกูล,56743@tmbbank.com,,สำนักงานใหญ่ ชั้น 9A|,กรุงเทพมหานคร|จตุจักร,1400300599,ประจำ โซลูชั่นระบบงาน Branch Operations และEnterprise Customer,3029,001433,Senior Service Delivery Manager,000,
A,56770,นางสาว มัชฌิมา ทรัพย์จำเนียร,56770@tmbbank.com,,สำนักงานใหญ่ ชั้น 30A|,กรุงเทพมหานคร|จตุจักร,0101100499,ประจำ Beyond Banking - Salaryman ecosystem,2119,003329,หัวหน้า Beyond Banking - Salaryman ecosystem,000,
A,56783,นาย ไพศิฐ เจริญสุข,56783@tmbbank.com,,สำนักงานใหญ่ ชั้น 28A|,กรุงเทพมหานคร|จตุจักร,0700101099,ประจำ วางแผนและวิเคราะห์ทางการเงิน - โครงการรวมกิจการ,4759,001622,ผู้เชี่ยวชาญอาวุโส - วางแผนและวิเคราะห์ทางการเงิน,000,
A,56808,นางสาว ณัฎฐนิชา ทองพึ่งตน,56808@tmbbank.com,,สาขา|,กรุงเทพมหานคร|ราชเทวี,0000000909,สาขาสำนักเพชรบุรี,1870,000401,เจ้าหน้าที่บริการลูกค้า,909,สาขาสำนักเพชรบุรี
A,56818,นางสาว เมธชนัน สุขประเสริฐ,56818@tmbbank.com,,สำนักงานใหญ่ ชั้น 18A|,กรุงเทพมหานคร|จตุจักร,0402400131,พัฒนากระบวนการสินเชื่อเพื่อที่อยู่อาศัย และจัดหาลูกค้าใหม่,5381,003358,ผู้เชี่ยวชาญ - พัฒนากระบวนการสินเชื่อเพื่อที่อยู่อาศัยและจัดหาลูกค้าใหม่,000,
A,56820,นางสาว ฐิติพร ทนง,56820@tmbbank.com,,สาขา|,กรุงเทพมหานคร|พญาไท,0000000928,สาขาสนามเป้า (หน้าโรงพยาบาลพญาไท 2),1870,000401,เจ้าหน้าที่บริการลูกค้า,928,สาขาสนามเป้า (หน้าโรงพยาบาลพญาไท 2)
A,56823,นางสาว ชลลดา ตันธนสุทธิวงศ์,56823@tmbbank.com,,สำนักงานใหญ่ ชั้น 9B|,กรุงเทพมหานคร|จตุจักร,0101000399,ประจำ บริหาร Digital Channels Delivery,5169,002155,ผู้เชี่ยวชาญอาวุโส - บริหารผลิตภัณฑ์ดิจิทัล,000,
A,56824,นางสาว ธนาภรณ์ พิกุลกรอง,56824@tmbbank.com,,สำนักงานใหญ่ ชั้น 16A|,กรุงเทพมหานคร|จตุจักร,1100200599,ประจำ บริหารความสัมพันธ์และประสบการณ์ลูกค้า ผลิตภัณฑ์สินเชื่อรถยนต์และสินเชื่อลูกค้าบุคคล,5499,000256,เจ้าหน้าที่ชำนาญการอาวุโส - บริหารความสัมพันธ์และประสบการณ์ลูกค้า,000,
A,56832,นางสาว ธันยาพร เล้าโสภา?ภิรมย์?,56832@tmbbank.com,,สำนักงานใหญ่ ชั้น 32A|,กรุงเทพมหานคร|จตุจักร,0100600031,ศูนย์วิเคราะห์เศรษฐกิจภาคอุตสาหกรรม,8491,000429,ผู้เชี่ยวชาญ - ศูนย์วิเคราะห์เศรษฐกิจ,000,
A,56837,นาย ทองพิทักษ์ โสวันนา,56837@tmbbank.com,,สำนักงานใหญ่ ชั้น 19A|,กรุงเทพมหานคร|จตุจักร,0101010299,ประจำ Software Engineer 1,1519,003005,Software Engineer,000,
A,56843,นาย กวิภัฎ ดาบทอง,56843@tmbbank.com,,สำนักงานใหญ่ ชั้น 31A|,กรุงเทพมหานคร|จตุจักร,0100600199,ประจำ Data Analytics COE - 1,4719,003119,Data Interns,000,
A,56845,นาย อังศราวุฒิ เดชเดชา,56845@tmbbank.com,,สาขา|,กรุงเทพมหานคร|ราชเทวี,0000000038,สาขาโรงพยาบาลพระมงกุฏเกล้า,1870,000401,เจ้าหน้าที่บริการลูกค้า,038,สาขาโรงพยาบาลพระมงกุฏเกล้า
A,56849,นางสาว มณีนุช มณีมาส,56849@tmbbank.com,,สาขา|,กรุงเทพมหานคร|บางกอกน้อย,0000000019,สาขาพรานนก,6930,000401,เจ้าหน้าที่บริการลูกค้า,019,สาขาพรานนก
A,56859,นางสาว ชุติกาญจน์ บุญชุม,56859@tmbbank.com,,สาขา|,อุบลราชธานี|เมือง,0000000513,สาขาถนนพรหมราช-อุบลราชธานี,7430,000401,เจ้าหน้าที่บริการลูกค้า,513,สาขาถนนพรหมราช-อุบลราชธานี
A,56871,นางสาว กุลิสรา บุญประเสริฐ,56871@tmbbank.com,,สาขา|,กรุงเทพมหานคร|ห้วยขวาง,0000000214,สาขาโรงพยาบาลกรุงเทพ ซอยศูนย์วิจัย,6950,000401,เจ้าหน้าที่บริการลูกค้า,214,สาขาโรงพยาบาลกรุงเทพ ซอยศูนย์วิจัย
A,56875,นางสาว ฐิติรัตน์ อุดมสันต์,56875@tmbbank.com,,สาขา|,ศรีสะเกษ|เมือง,0000000412,สาขาศรีสะเกษ,7430,000401,เจ้าหน้าที่บริการลูกค้า,412,สาขาศรีสะเกษ
A,56878,นางสาว สุพัตตรา ไกรทอง,56878@tmbbank.com,,สาขา|,กรุงเทพมหานคร|ห้วยขวาง,0000000214,สาขาโรงพยาบาลกรุงเทพ ซอยศูนย์วิจัย,6950,000401,เจ้าหน้าที่บริการลูกค้า,214,สาขาโรงพยาบาลกรุงเทพ ซอยศูนย์วิจัย
A,56886,นางสาว ดวงกมล หยวกทอง,56886@tmbbank.com,,สำนักงานใหญ่ ชั้น 9B|,กรุงเทพมหานคร|จตุจักร,0101000399,ประจำ บริหาร Digital Channels Delivery,5169,000152,นักวิเคราะห์ธุรกิจอาวุโส,000,
A,56890,นางสาว ฐานิส หวงวงษ์,56890@tmbbank.com,,สำนักงานใหญ่ ชั้น 2B|,กรุงเทพมหานคร|จตุจักร,1000100531,สรรหาบุคลากร,4722,002127,ผู้เชี่ยวชาญ - สรรหาบุคลากร,000,
A,56901,นางสาว รวยริน แสงกุวรรณ,56901@tmbbank.com,,สาขา|,ชลบุรี|เมือง,0000000509,สาขาโลตัส ชลบุรี,9210,002735,เจ้าหน้าที่อาวุโสส่งเสริมธุรกิจสาขา,509,สาขาโลตัส ชลบุรี
A,56903,นาย ชลัช มงคลถิรภัทร์,56903@tmbbank.com,,สำนักงานใหญ่ ชั้น 30A|,กรุงเทพมหานคร|จตุจักร,0100600699,ประจำ Data Analytics Platform and Transformation,3259,003109,ผู้เชี่ยวชาญ - บริหารวิศวกรข้อมูล,000,
A,56910,นางสาว ยุภาพร ราชเจริญ,56910@tmbbank.com,,RAMA7 Floor 5|,กรุงเทพมหานคร|จตุจักร,8000100333,เร่งรัดหนี้รายย่อยสินเชื่อรถยนต์ 3,1503,000791,เจ้าหน้าที่ - เร่งรัดหนี้รายย่อย,000,
A,56913,นางสาว กาญจนา คำแดง,56913@tmbbank.com,,RAMA7 Floor 5|,กรุงเทพมหานคร|จตุจักร,8000100334,เร่งรัดหนี้รายย่อยสินเชื่อรถยนต์ 4,1504,000791,เจ้าหน้าที่ - เร่งรัดหนี้รายย่อย,000,
A,56930,นางสาว อรอนงค์ อรุณรัตน์,56930@tmbbank.com,,RAMA7 Floor 5|,กรุงเทพมหานคร|จตุจักร,8000100333,เร่งรัดหนี้รายย่อยสินเชื่อรถยนต์ 3,1503,000791,เจ้าหน้าที่ - เร่งรัดหนี้รายย่อย,000,
A,56938,นางสาว พิยาดา ชัยประเสริฐ,56938@tmbbank.com,,สำนักงานเขต|,ราชบุรี|เมือง,0250300533,สำนักงานเขตลูกค้าเอสเอ็มอี - ราชบุรี,8033,000743,ผู้จัดการความสัมพันธ์อาวุโส - เอสเอ็มอี,000,
A,56953,นางสาว น้ำฝน บุญทอง,56953@tmbbank.com,,Wong Sawang Floor 3|,กรุงเทพมหานคร|จตุจักร,7100102301,แนะนำผลิตภัณฑ์การเงินลูกค้าบุคคล 7,7793,777012,เจ้าหน้าที่แนะนำผลิตภัณฑ์การเงินลูกค้าบุคคล,000,
A,56968,นาย ภัทรพงศ์ คำหินกอง,56968@tmbbank.com,,สำนักงานใหญ่ ชั้น 8A|,กรุงเทพมหานคร|จตุจักร,1400000132,Modernized Technology and Services,2533,000457,Senior Technical Infrastructure Analyst,000,
A,56976,นางสาว สรญา พานิช,56976@tmbbank.com,,สำนักงานใหญ่ ชั้น 18A|,กรุงเทพมหานคร|จตุจักร,0460000331,บริหารความเชี่ยวชาญด้านการลงทุนและความคุ้มครอง 1,5451,002755,ผู้เชี่ยวชาญ - ด้านความคุ้มครอง,000,
A,56981,นาย วรุตพงษ์ อินทนุ,56981@tmbbank.com,,Phetburi Office Floor 4|,กรุงเทพมหานคร|ราชเทวี,0800400131,วิเคราะห์ข้อมูลธุรกิจสินเชื่อรถยนต์,1911,003143,เจ้าหน้าที่ชำนาญการอาวุโส - วิเคราะห์ข้อมูลธุรกิจสินเชื่อรถยนต์,000,
A,57005,นางสาว จิรัฐติกานต์ หว่านชัยสิทธิ์,57005@tmbbank.com,,สำนักงานใหญ่ ชั้น 14A|,กรุงเทพมหานคร|จตุจักร,0250300232,สำนักงานเขตลูกค้าเอสเอ็มอี - พหลโยธิน,8052,000387,ผู้จัดการความสัมพันธ์ - เอสเอ็มอี,000,
A,57006,นางสาว นัทธิมาภรณ์ กนิษฐวงศ์,57006@tmbbank.com,,สำนักงานใหญ่ ชั้น 20A|,กรุงเทพมหานคร|จตุจักร,0250000799,ประจำ บริหารความสัมพันธ์ลูกค้าบรรษัทธุรกิจ 2-4,5619,001373,ผู้ช่วยผู้จัดการ - บริการลูกค้าธุรกิจ,000,
A,57013,นาย วรธรรม เงินมาก,57013@tmbbank.com,,สาขา|,กรุงเทพมหานคร|ดอนเมือง,0000000057,สาขากองบัญชาการกองทัพอากาศ,6910,000401,เจ้าหน้าที่บริการลูกค้า,057,สาขากองบัญชาการกองทัพอากาศ
A,57014,นางสาว ณัฐปภัสร์ ธันญ์ธีรกูล,57014@tmbbank.com,,สาขา|,ขอนแก่น|เมือง,0000000630,สาขาเซ็นทรัลพลาซา ขอนแก่น,7440,000401,เจ้าหน้าที่บริการลูกค้า,630,สาขาเซ็นทรัลพลาซา ขอนแก่น
A,57015,นางสาว แพรวา ศรีอำไพวิวัฒน์,57015@tmbbank.com,,สาขา|,กรุงเทพมหานคร|คลองสาน,0000000033,สาขาลาดหญ้า,9270,000401,เจ้าหน้าที่บริการลูกค้า,033,สาขาลาดหญ้า
A,57016,นางสาว จุฑามาตร ห้องแซง,57016@tmbbank.com,,สาขา|,กรุงเทพมหานคร|บางกอกใหญ่,0000000291,สาขาจรัญสนิทวงศ์ 13,9270,000401,เจ้าหน้าที่บริการลูกค้า,291,สาขาจรัญสนิทวงศ์ 13
A,57017,นางสาว พิมภัสร ปัณฑะโมรา,57017@tmbbank.com,,สาขา|,กรุงเทพมหานคร|ธนบุรี,0000000754,สาขาตลาดพลู,9270,000401,เจ้าหน้าที่บริการลูกค้า,754,สาขาตลาดพลู
A,57018,นางสาว นิรชา กัณฑ์โรจน์,57018@tmbbank.com,,สาขา|,นครสวรรค์|ตาคลี,0000000695,สาขาตาคลี,7130,000401,เจ้าหน้าที่บริการลูกค้า,695,สาขาตาคลี
A,57019,นางสาว เพชราพร แพเพชร,57019@tmbbank.com,,สาขา|,กรุงเทพมหานคร|บางกะปิ,0000000014,สาขาหัวหมาก,6940,000401,เจ้าหน้าที่บริการลูกค้า,014,สาขาหัวหมาก
A,57020,นางสาว วลัยลักษณ์ ศาลางาม,57020@tmbbank.com,,สาขา|,กรุงเทพมหานคร|สะพานสูง,0000000817,สาขารามคำแหง 160,6940,000401,เจ้าหน้าที่บริการลูกค้า,817,สาขารามคำแหง 160
A,57022,นางสาว รัตนาภรณ์ ซังเอียด,57022@tmbbank.com,,สาขา|,กรุงเทพมหานคร|บางกะปิ,0000000713,สาขาลำสาลี,6940,000401,เจ้าหน้าที่บริการลูกค้า,713,สาขาลำสาลี
A,57023,นาย ดนัยกร พันธุรัตน์,57023@tmbbank.com,,สาขา|,กรุงเทพมหานคร|บึงกุ่ม,0000000102,สาขาอินทรารักษ์,6940,000401,เจ้าหน้าที่บริการลูกค้า,102,สาขาอินทรารักษ์
A,57024,นางสาว ณัฐริกา สังฆะมณี,57024@tmbbank.com,,สาขา|,กรุงเทพมหานคร|บางนา,0000000058,สาขาบางนา,1880,000401,เจ้าหน้าที่บริการลูกค้า,058,สาขาบางนา
A,57026,นางสาว ผริตา นิพนธ์,57026@tmbbank.com,,สาขา|,นครสวรรค์|เมืองนครสวรรค์,0000000745,สาขานครสวรรค์,7130,000401,เจ้าหน้าที่บริการลูกค้า,745,สาขานครสวรรค์
A,57030,นางสาว จิรวรรณ แก้วสุข,57030@tmbbank.com,,สาขา|,กรุงเทพมหานคร|บางพลัด,0000000723,สาขาถนนสิรินธร,6930,000401,เจ้าหน้าที่บริการลูกค้า,723,สาขาถนนสิรินธร
A,57031,นาย ณัฐวัตร ภู่พันธ์ศรี,57031@tmbbank.com,,สาขา|,กรุงเทพมหานคร|บางกอกใหญ่,0000000115,สาขากองบัญชาการกองทัพเรือ,6930,000401,เจ้าหน้าที่บริการลูกค้า,115,สาขากองบัญชาการกองทัพเรือ
A,57033,นาย เอกพล ทรัพย์พิศุทธิ์,57033@tmbbank.com,,สาขา|,กรุงเทพมหานคร|พญาไท,0000000193,สาขาสะพานควาย,1870,000401,เจ้าหน้าที่บริการลูกค้า,193,สาขาสะพานควาย
A,57034,นางสาว มธุรดา สาตรี,57034@tmbbank.com,,สาขา|,กรุงเทพมหานคร|ดินแดง,0000000054,สาขารัชดาภิเษก-ห้วยขวาง,6950,000401,เจ้าหน้าที่บริการลูกค้า,054,สาขารัชดาภิเษก-ห้วยขวาง
A,57037,นางสาว พจณิชา ศรีวะกุล,57037@tmbbank.com,,สาขา|,กรุงเทพมหานคร|วัฒนา,0000000178,สาขาสุขุมวิท 31,1840,000401,เจ้าหน้าที่บริการลูกค้า,178,สาขาสุขุมวิท 31
A,57038,นางสาว ภานุมาศ คุ้มชำนาญ,57038@tmbbank.com,,สาขา|,สุราษฎร์ธานี|เมือง,0000000587,สาขาบิ๊กซี สุราษฎร์ธานี,7860,000401,เจ้าหน้าที่บริการลูกค้า,587,สาขาบิ๊กซี สุราษฎร์ธานี
A,57039,นางสาว สุภศิณี จันทรมุณี,57039@tmbbank.com,,สาขา|,สุราษฎร์ธานี|เมืองสุราษฎร์ธานี,0000000767,สาขาถนนชนเกษม (สุราษฎร์ธานี),7860,000401,เจ้าหน้าที่บริการลูกค้า,767,สาขาถนนชนเกษม (สุราษฎร์ธานี)
A,57040,นางสาว ดลกมล ช่วยนาเขตต์,57040@tmbbank.com,,สาขา|,สุราษฎร์ธานี|เมือง,0000000587,สาขาบิ๊กซี สุราษฎร์ธานี,7860,000401,เจ้าหน้าที่บริการลูกค้า,587,สาขาบิ๊กซี สุราษฎร์ธานี
A,57041,นางสาว เกวลี อุธายีร์,57041@tmbbank.com,,สาขา|,สุราษฎร์ธานี|บ้านนาเดิม,0000000971,สาขาบ้านนาเดิม,7860,000401,เจ้าหน้าที่บริการลูกค้า,971,สาขาบ้านนาเดิม
A,57045,นางสาว ปิ่นมุข หนูนุ่ม,57045@tmbbank.com,,สำนักงานใหญ่ ชั้น 9B|,กรุงเทพมหานคร|จตุจักร,0101100299,ประจำ บริหาร Digital User Experience and Design,5119,000139,UX/UI Designer,000,
A,57049,นางสาว ภาวิยา วรศักดิ์สิริกุล,57049@tmbbank.com,,สำนักงานใหญ่ ชั้น 2B|,กรุงเทพมหานคร|จตุจักร,1000000299,ประจำ บุคลากรและธุรกิจสัมพันธ์ 2,4629,000496,เจ้าหน้าที่ชำนาญการอาวุโส - บุคลากรและธุรกิจสัมพันธ์,000,
A,57056,นาย นันทพงศ์ ทั้งวงศ์สกุล,57056@tmbbank.com,,สำนักงานใหญ่ ชั้น 19A|,กรุงเทพมหานคร|จตุจักร,0101010299,ประจำ Software Engineer 1,1519,003005,Software Engineer,000,
A,57057,นาย ธนาพล ชมภูพื้น,57057@tmbbank.com,,Phetburi Office Floor 4|,กรุงเทพมหานคร|ราชเทวี,0800400299,ประจำ กลยุทธ์และพัฒนางานขายสินเชื่อรถยนต์,2619,002641,เจ้าหน้าที่ชำนาญการอาวุโส - กลยุทธ์และพัฒนางานขายสินเชื่อรถยนต์,000,
A,57063,นาย กันตพัฒน์ วัฒนาศิลป์ชัย,57063@tmbbank.com,,สำนักงานใหญ่ ชั้น 2B|,กรุงเทพมหานคร|จตุจักร,1000100531,สรรหาบุคลากร,4722,002128,เจ้าหน้าที่ชำนาญการอาวุโส - สรรหาบุคลากร,000,
A,57064,นางสาว วาทินี วงศ์จ้อย,57064@tmbbank.com,,สำนักงานใหญ่ ชั้น 30A|,กรุงเทพมหานคร|จตุจักร,0101100431,โซลูชั่นระบบงาน ด้านนวัตกรรม Digital,2111,002007,Senior Test Engineer,000,
A,57067,นางสาว ณัฏฐธิดา ยางสวย,57067@tmbbank.com,,สาขา|,|,0000000271,สาขาเซ็นทรัลพลาซา ศาลายา,7170,000401,เจ้าหน้าที่บริการลูกค้า,271,สาขาเซ็นทรัลพลาซา ศาลายา
A,57068,นางสาว กัญญพัชร คงเกิด,57068@tmbbank.com,,สาขา|,กรุงเทพมหานคร|บางซื่อ,0000000680,สาขาวงศ์สว่าง,6990,000401,เจ้าหน้าที่บริการลูกค้า,680,สาขาวงศ์สว่าง
A,57069,นางสาว สุชานรี สวยนภานุสรณ์,57069@tmbbank.com,,สาขา|,|,0000000271,สาขาเซ็นทรัลพลาซา ศาลายา,7170,000401,เจ้าหน้าที่บริการลูกค้า,271,สาขาเซ็นทรัลพลาซา ศาลายา
A,57070,นางสาว สุรีย์พร คะเชนทอง,57070@tmbbank.com,,สาขา|,นนทบุรี|บางบัวทอง,0000000145,สาขาตลาดบางบัวทอง,6920,000401,เจ้าหน้าที่บริการลูกค้า,145,สาขาตลาดบางบัวทอง
A,57071,นางสาว วิมลมณี จันเทศ,57071@tmbbank.com,,สาขา|,กรุงเทพมหานคร|บางแค,0000000243,สาขาเพชรเกษม พาวเวอร์ เซ็นเตอร์,6930,000401,เจ้าหน้าที่บริการลูกค้า,243,สาขาเพชรเกษม พาวเวอร์ เซ็นเตอร์
A,57072,นาย เหมวิช สมภารวงค์,57072@tmbbank.com,,สาขา|,น่าน|เมือง,0000000363,สาขาน่าน,7160,000401,เจ้าหน้าที่บริการลูกค้า,363,สาขาน่าน
A,57074,นางสาว ณัฐฐาพร รอดเพ็ง,57074@tmbbank.com,,สาขา|,กรุงเทพมหานคร|ดินแดง,0000000845,สาขารัชดาภิเษก (อาคารกลาสเฮ้าส์),6950,003077,เจ้าหน้าที่ - สินเชื่อบ้าน,845,สาขารัชดาภิเษก (อาคารกลาสเฮ้าส์)
A,57075,นางสาว อรดา ม่วงสิงห์,57075@tmbbank.com,,สาขา|,พิษณุโลก|เมืองพิษณุโลก,0000000692,สาขาโลตัส พิษณุโลก,7160,002737,ผู้ช่วยเจ้าหน้าที่ส่งเสริมธุรกิจสาขา,692,สาขาโลตัส พิษณุโลก
A,57079,นางสาว ลักษณี เดชทวีวัฒน์,57079@tmbbank.com,,สาขา|,สมุทรสาคร|กระทุ่มแบน,0000000727,สาขากระทุ่มแบน (ถนนสุคนธวิท),7170,000401,เจ้าหน้าที่บริการลูกค้า,727,สาขากระทุ่มแบน (ถนนสุคนธวิท)
A,57081,นางสาว ญาดา มาลัย,57081@tmbbank.com,,สาขา|,สมุทรปราการ|บางเสาธง,0000000296,สาขาเมืองใหม่-บางพลี,1880,000401,เจ้าหน้าที่บริการลูกค้า,296,สาขาเมืองใหม่-บางพลี
A,57082,นางสาว นาตญา สุโรพันธ์,57082@tmbbank.com,,สาขา|,กรุงเทพมหานคร|บางรัก,0000000072,สาขาบางรัก,1850,000401,เจ้าหน้าที่บริการลูกค้า,072,สาขาบางรัก
A,57083,นางสาว วิภาวรรณ ขำหวาน,57083@tmbbank.com,,สาขา|,สุราษฎร์ธานี|เมืองสุราษฎร์ธานี,0000000441,สาขาหน้าโรงพยาบาลสุราษฎร์ธานี,7860,000401,เจ้าหน้าที่บริการลูกค้า,441,สาขาหน้าโรงพยาบาลสุราษฎร์ธานี
A,57085,นางสาว รักชนก อินทนา,57085@tmbbank.com,,สาขา|,|,0000000271,สาขาเซ็นทรัลพลาซา ศาลายา,7170,000401,เจ้าหน้าที่บริการลูกค้า,271,สาขาเซ็นทรัลพลาซา ศาลายา
A,57086,นาย ชนะพัฒน์ ภูเดช,57086@tmbbank.com,,สาขา|,กรุงเทพมหานคร|บางเขน,0000000244,สาขาตลาดถนอมมิตร วัชรพล,6910,000401,เจ้าหน้าที่บริการลูกค้า,244,สาขาตลาดถนอมมิตร วัชรพล
A,57087,นางสาว ปาลิตา ศรีอรห์,57087@tmbbank.com,,สาขา|,สมุทรปราการ|พระประแดง,0000000685,สาขาบิ๊กซี สุขสวัสดิ์,9270,000401,เจ้าหน้าที่บริการลูกค้า,685,สาขาบิ๊กซี สุขสวัสดิ์
A,57089,นางสาว จุฑาทิพย์ ประสารทรัพย์,57089@tmbbank.com,,สาขา|,กรุงเทพมหานคร|บางกอกน้อย,0000000019,สาขาพรานนก,6930,000401,เจ้าหน้าที่บริการลูกค้า,019,สาขาพรานนก
A,57090,นางสาว สุธิดา เปรมพักตร์,57090@tmbbank.com,,สาขา|,ระยอง|แกลง,0000000839,สาขาสามแยกแกลง,9280,000401,เจ้าหน้าที่บริการลูกค้า,839,สาขาสามแยกแกลง
A,57092,นางสาว ฟาริดา สมัย,57092@tmbbank.com,,สาขา|,กรุงเทพมหานคร|วัฒนา,0000000180,สาขาสุขุมวิท 71,1840,002736,เจ้าหน้าที่ส่งเสริมธุรกิจสาขา,180,สาขาสุขุมวิท 71
A,57093,นางสาว ณัฐริกา นราพล,57093@tmbbank.com,,สาขา|,กรุงเทพมหานคร|ธนบุรี,0000000285,สาขารัชดาภิเษก-ท่าพระ,9270,000401,เจ้าหน้าที่บริการลูกค้า,285,สาขารัชดาภิเษก-ท่าพระ
A,57094,นางสาว อรฐิตา อินมีศรี,57094@tmbbank.com,,สาขา|,กรุงเทพมหานคร|คลองสาน,0000000283,สาขาไอคอน สยาม,9270,000401,เจ้าหน้าที่บริการลูกค้า,283,สาขาไอคอน สยาม
A,57096,นาย สรวิชญ์ ธนะศรี,57096@tmbbank.com,,สาขา|,ปราจีนบุรี|ศรีมหาโพธิ,0000000672,สาขาเขตอุตสาหกรรม 304,7460,000401,เจ้าหน้าที่บริการลูกค้า,672,สาขาเขตอุตสาหกรรม 304
A,57099,นาย ธนพนธ์ ธรรมกาย,57099@tmbbank.com,,สำนักงานใหญ่ ชั้น 10A|,กรุงเทพมหานคร|จตุจักร,0450300132,ที่ปรึกษาด้านการลงทุน 2,9562,001777,เจ้าหน้าที่ชำนาญการ - ที่ปรึกษาด้านการลงทุน,000,
A,57106,นาย ประพันธ์ศักดิ์ แก้วละมุล,57106@tmbbank.com,,สำนักงานใหญ่ ชั้น 30A|,กรุงเทพมหานคร|จตุจักร,0101100331,โซลูชั่นระบบงาน ด้านนวัตกรรม Digital,2671,003005,Software Engineer,000,
A,57119,นางสาว รัชประภา ธนวัฒนากุล,57119@tmbbank.com,,สำนักงานใหญ่ ชั้น 10B|,กรุงเทพมหานคร|จตุจักร,0270300199,ประจำ วาณิชธนกิจ,5959,001485,ผู้จัดการ - วาณิชธนกิจ,000,
A,57120,นางสาว ฟาติมา ไฮเดอร์,57120@tmbbank.com,,เพชรเกษม ชั้น 3|,กรุงเทพมหานคร|สวนหลวง,7000000531,ประกันภัยธุรกิจรายใหญ่ทีม 1 และประกันภัยพิเศษ,7791,999097,เจ้าหน้าที่ - ประกันภัยธุรกิจรายใหญ่ และประกันภัยพิเศษ,000,
A,57121,นางสาว สุชัญญา กานิน,57121@tmbbank.com,,เพชรเกษม ชั้น 3|,กรุงเทพมหานคร|สวนหลวง,7000000534,ประกันภัยธุรกิจขนาดกลาง,7791,999103,เจ้าหน้าที่ - ประกันภัยธุรกิจขนาดกลาง,000,
A,57122,นางสาว ปิยะดา เจือจาน,57122@tmbbank.com,,The Nine Floor 4 Zone F|,กรุงเทพมหานคร|สวนหลวง,7000000235,บริหารกลยุทธ์ลูกค้าและส่งเสริมการขาย,7791,999030,เจ้าหน้าที่ชำนาญการ - บริหารกลยุทธ์ลูกค้า,000,
A,57123,นางสาว ศิรินภา วิไลลักษณ์,57123@tmbbank.com,,เพชรเกษม ชั้น 3|,กรุงเทพมหานคร|สวนหลวง,7000000731,งานแนะนำด้านสินไหมทดแทนและด้านความเสี่ยงภัย,7791,999124,เจ้าหน้าที่ชำนาญการ - งานแนะนำด้านสินไหมทดแทนธุรกิจขนาดกลางและภัยพิเศษ,000,
A,57126,นางสาว ปุณยนุช สกุณี,57126@tmbbank.com,,สาขา|,กรุงเทพมหานคร|คลองสาน,0000000286,สาขาเจริญนคร ซอย 36,9270,000401,เจ้าหน้าที่บริการลูกค้า,286,สาขาเจริญนคร ซอย 36
A,57128,นางสาว ชมพูนุช ผู้สมเก่า,57128@tmbbank.com,,สาขา|,กรุงเทพมหานคร|สาทร,0000000931,สาขาถนนสาทรใต้ (ไทย ซี ซี ทาวเวอร์),1860,000401,เจ้าหน้าที่บริการลูกค้า,931,สาขาถนนสาทรใต้ (ไทย ซี ซี ทาวเวอร์)
A,57131,นางสาว ณัฐธยาน์ ขวัญเขียน,57131@tmbbank.com,,สาขา|,กรุงเทพมหานคร|ทวีวัฒนา,0000000682,สาขาถนนกาญจนาภิเษก (ทวีวัฒนา),6930,000401,เจ้าหน้าที่บริการลูกค้า,682,สาขาถนนกาญจนาภิเษก (ทวีวัฒนา)
A,57132,นางสาว พจีรจิต เกษมสินธุ,57132@tmbbank.com,,สาขา|,อ่างทอง|เมือง,0000000473,สาขาวงเวียนสระแก้ว-ลพบุรี,7460,000401,เจ้าหน้าที่บริการลูกค้า,473,สาขาวงเวียนสระแก้ว-ลพบุรี
A,57134,นางสาว ปิยะรัตน์ อินทรบุตร,57134@tmbbank.com,,สาขา|,กรุงเทพมหานคร|บางนา,0000000058,สาขาบางนา,1880,000401,เจ้าหน้าที่บริการลูกค้า,058,สาขาบางนา
A,57136,นางสาว รามาวดี นัยวรรณ์,57136@tmbbank.com,,สาขา|,กรุงเทพมหานคร|บางซื่อ,0000000680,สาขาวงศ์สว่าง,6990,000401,เจ้าหน้าที่บริการลูกค้า,680,สาขาวงศ์สว่าง
A,57139,นาย อัครฉัตร สุขศิริ,57139@tmbbank.com,,สำนักงานใหญ่ ชั้น 23A|,กรุงเทพมหานคร|จตุจักร,0110100499,ประจำ ที่ปรึกษาบริหารการเงินพิเศษ - ลูกค้าบรรษัทธุรกิจ 1-4,1199,001899,ผู้เชี่ยวชาญอาวุโส - ที่ปรึกษาบริหารการเงินพิเศษ,000,
A,57141,นางสาว กมนปภา แจ่มศรี,57141@tmbbank.com,,สาขา|,กรุงเทพมหานคร|สาทร,0000000186,สาขาโรงพยาบาลเซนต์หลุยส์,1860,000401,เจ้าหน้าที่บริการลูกค้า,186,สาขาโรงพยาบาลเซนต์หลุยส์
A,57143,นาย วีระพงศ์ บัวคำ,57143@tmbbank.com,,สาขา|,กรุงเทพมหานคร|ลาดพร้าว,0000000275,สาขาเซ็นทรัลเฟสติวัล อีสต์วิลล์,6950,000401,เจ้าหน้าที่บริการลูกค้า,275,สาขาเซ็นทรัลเฟสติวัล อีสต์วิลล์
A,57144,นางสาว ภิญญดาพัชร์ แง่มแก้ว,57144@tmbbank.com,,สาขา|,นครสวรรค์|เมืองนครสวรรค์,0000000869,สาขาปากน้ำโพ,7130,000401,เจ้าหน้าที่บริการลูกค้า,869,สาขาปากน้ำโพ
A,57145,นางสาว อนุสรา แสงสุวรรณ,57145@tmbbank.com,,สาขา|,เพชรบุรี|ชะอำ,0000000982,สาขาชะอำ,7840,000401,เจ้าหน้าที่บริการลูกค้า,982,สาขาชะอำ
A,57146,นางสาว ชฏาพร หนูจีน,57146@tmbbank.com,,สาขา|,นครศรีธรรมราช|ทุ่งสง,0000000954,สาขาทุ่งสง (ถนนชนปรีดา),7880,000401,เจ้าหน้าที่บริการลูกค้า,954,สาขาทุ่งสง (ถนนชนปรีดา)
A,57147,นางสาว สุวัจนี พินเสี้ยว,57147@tmbbank.com,,สาขา|,กรุงเทพมหานคร|บางซื่อ,0000000018,สาขาเตาปูน,6990,000401,เจ้าหน้าที่บริการลูกค้า,018,สาขาเตาปูน
A,57148,นางสาว นันธฤดี บ่างกองกูล,57148@tmbbank.com,,สาขา|,กรุงเทพมหานคร|สะพานสูง,0000000253,สาขาเพียวเพลส รามคำแหง 110,6940,000401,เจ้าหน้าที่บริการลูกค้า,253,สาขาเพียวเพลส รามคำแหง 110
A,57149,นางสาว วาทินี ชิณละวงษ์,57149@tmbbank.com,,สาขา|,กรุงเทพมหานคร|บึงกุ่ม,0000000102,สาขาอินทรารักษ์,6940,000401,เจ้าหน้าที่บริการลูกค้า,102,สาขาอินทรารักษ์
A,57150,นาย ปองณัฐ ทองชนะ,57150@tmbbank.com,,สาขา|,กรุงเทพมหานคร|ปทุมวัน,0000000216,สาขาเซ็นทรัลเวิลด์,1820,000401,เจ้าหน้าที่บริการลูกค้า,216,สาขาเซ็นทรัลเวิลด์
A,57151,นาย อนุชา ศรสมศักดิ์,57151@tmbbank.com,,สาขา|,กรุงเทพมหานคร|ปทุมวัน,0000000174,สาขาสยามสแควร์,1820,000401,เจ้าหน้าที่บริการลูกค้า,174,สาขาสยามสแควร์
A,57152,นางสาว ณัฐมน เพ็ชรสุ่ม,57152@tmbbank.com,,สาขา|,อ่างทอง|เมือง,0000000304,สาขาลพบุรี,7460,000401,เจ้าหน้าที่บริการลูกค้า,304,สาขาลพบุรี
A,57153,นางสาว สุภาวรรณ ทองนาค,57153@tmbbank.com,,สาขา|,ประจวบคีรีขันธ์|ปราณบุรี,0000000944,สาขาปราณบุรี (ถนนเพชรเกษม),7840,000401,เจ้าหน้าที่บริการลูกค้า,944,สาขาปราณบุรี (ถนนเพชรเกษม)
A,57154,นางสาว สุภาพร แป้นสุกใส,57154@tmbbank.com,,สาขา|,ปราจีนบุรี|กบินทร์บุรี,0000000708,สาขาเขตอุตสาหกรรมกบินทร์บุรี (หนองกี่),7460,000401,เจ้าหน้าที่บริการลูกค้า,708,สาขาเขตอุตสาหกรรมกบินทร์บุรี (หนองกี่)
A,57155,นางสาว ศิริกัญญา สมจันทร์,57155@tmbbank.com,,สาขา|,กรุงเทพมหานคร|วัฒนา,0000000152,สาขาเอกมัย,1840,000401,เจ้าหน้าที่บริการลูกค้า,152,สาขาเอกมัย
A,57156,นาย ปฎิวัติ ฉันทวรลักษณ์,57156@tmbbank.com,,สาขา|,กรุงเทพมหานคร|บางบอน,0000000089,สาขาบางบอน,9260,000401,เจ้าหน้าที่บริการลูกค้า,089,สาขาบางบอน
A,57157,นาย จตุพร มีทิพย์,57157@tmbbank.com,,The Nine Floor 3 Zone E|,กรุงเทพมหานคร|สวนหลวง,7000000332,ประกันภัยรายย่อย 2 ทีม 2,7791,999090,เจ้าหน้าที่ - ประกันภัยรายย่อย,000,
A,57158,นางสาว ปวีณ์กร ฐิตะฐาน,57158@tmbbank.com,,The Nine Floor 3 Zone E|,กรุงเทพมหานคร|สวนหลวง,7000000332,ประกันภัยรายย่อย 2 ทีม 2,7791,999090,เจ้าหน้าที่ - ประกันภัยรายย่อย,000,
A,57159,นางสาว ชนาภา แสงวิโรจน์,57159@tmbbank.com,,สาขา|,พิจิตร|เมืองพิจิตร,0000000961,สาขาพิจิตร (ถนนศรีมาลา),7130,000401,เจ้าหน้าที่บริการลูกค้า,961,สาขาพิจิตร (ถนนศรีมาลา)
A,57160,นางสาว วิลาวัณย์ มูลศรี,57160@tmbbank.com,,The Nine Floor 4 Zone F|,กรุงเทพมหานคร|สวนหลวง,7000000231,ประกันภัยรายย่อย 1 ทีม 1,7791,999022,เจ้าหน้าที่ - ประกันภัยรายย่อย,000,
A,57161,นางสาว วิลาสินี ปั้นรูป,57161@tmbbank.com,,สาขา|,ตาก|เมืองตาก,0000000871,สาขาตาก (ถนนมหาดไทยบำรุง),7160,000401,เจ้าหน้าที่บริการลูกค้า,871,สาขาตาก (ถนนมหาดไทยบำรุง)
A,57162,นางสาว สุวิมล กุศลนำพา,57162@tmbbank.com,,The Nine Floor 3 Zone E|,กรุงเทพมหานคร|สวนหลวง,7000000332,ประกันภัยรายย่อย 2 ทีม 2,7791,999090,เจ้าหน้าที่ - ประกันภัยรายย่อย,000,
A,57163,นางสาว เกสราวดี จิรกิจเดชสกุล,57163@tmbbank.com,,สาขา|,กรุงเทพมหานคร|สัมพันธวงศ์,0000000027,สาขาไชน่าทาวน์ (เยาวราช),1850,000401,เจ้าหน้าที่บริการลูกค้า,027,สาขาไชน่าทาวน์ (เยาวราช)
A,57164,นาย วิศวะ คำฝอย,57164@tmbbank.com,,The Nine Floor 4 Zone F|,กรุงเทพมหานคร|สวนหลวง,7000000238,ประกันชีวิตรายย่อย,7791,999167,เจ้าหน้าที่ - ประกันชีวิตรายย่อย,000,
A,57165,นางสาว ณัฏฐ์ฑิภา แซ่ลิ้ม,57165@tmbbank.com,,The Nine Floor 4 Zone F|,กรุงเทพมหานคร|สวนหลวง,7000000238,ประกันชีวิตรายย่อย,7791,999167,เจ้าหน้าที่ - ประกันชีวิตรายย่อย,000,
A,57166,นาย กิตติศักดิ์ เฉลิมโยธิน,57166@tmbbank.com,,The Nine Floor 4 Zone F|,กรุงเทพมหานคร|สวนหลวง,7000000238,ประกันชีวิตรายย่อย,7791,999167,เจ้าหน้าที่ - ประกันชีวิตรายย่อย,000,
A,57167,นาย สันติ ภูมิเจริญ,57167@tmbbank.com,,The Nine Floor 4 Zone F|,กรุงเทพมหานคร|สวนหลวง,7000000238,ประกันชีวิตรายย่อย,7791,999167,เจ้าหน้าที่ - ประกันชีวิตรายย่อย,000,
A,57168,นางสาว พรสรัญ ทิมทอง,57168@tmbbank.com,,The Nine Floor 4 Zone F|,กรุงเทพมหานคร|สวนหลวง,7000000238,ประกันชีวิตรายย่อย,7791,999167,เจ้าหน้าที่ - ประกันชีวิตรายย่อย,000,
A,57169,นางสาว เสาวณีย์ พรมสังข์,57169@tmbbank.com,,The Nine Floor 4 Zone F|,กรุงเทพมหานคร|สวนหลวง,7000000238,ประกันชีวิตรายย่อย,7791,999167,เจ้าหน้าที่ - ประกันชีวิตรายย่อย,000,
A,57171,นางสาว ณฐกร ธิตา,57171@tmbbank.com,,สาขา|,พิจิตร|เมืองพิจิตร,0000000961,สาขาพิจิตร (ถนนศรีมาลา),7130,000401,เจ้าหน้าที่บริการลูกค้า,961,สาขาพิจิตร (ถนนศรีมาลา)
A,57173,นางสาว อารดา รื่นสนธิ์,57173@tmbbank.com,,สาขา|,พระนครศรีอยุธยา|พระนครศรีอยุธยา,0000000849,สาขาเซ็นทรัล อยุธยา,7470,000401,เจ้าหน้าที่บริการลูกค้า,849,สาขาเซ็นทรัล อยุธยา
A,57174,นางสาว ภัทรวดี แนบทองหลาง,57174@tmbbank.com,,สาขา|,ปทุมธานี|พระนครศรีอยุธยา,0000000633,สาขาอยุธยา พาร์ค,7470,000401,เจ้าหน้าที่บริการลูกค้า,633,สาขาอยุธยา พาร์ค
A,57175,นางสาว สุภัทรา มานะจิตต์,57175@tmbbank.com,,สาขา|,นครศรีธรรมราช|เมือง,0000000341,สาขานครศรีธรรมราช,7880,000401,เจ้าหน้าที่บริการลูกค้า,341,สาขานครศรีธรรมราช
A,57176,นางสาว สุวิมล เทศเทียน,57176@tmbbank.com,,สาขา|,กรุงเทพมหานคร|ตลิ่งชัน,0000000134,สาขาตลิ่งชัน,6930,002737,ผู้ช่วยเจ้าหน้าที่ส่งเสริมธุรกิจสาขา,134,สาขาตลิ่งชัน
A,57177,นาวาอากาศตรี จินทภา กนกนภากุล,57177@tmbbank.com,,สาขา|,ยโสธร|เมืองยโสธร,0000000783,สาขายโสธร (ถนนแจ้งสนิท),7430,000401,เจ้าหน้าที่บริการลูกค้า,783,สาขายโสธร (ถนนแจ้งสนิท)
A,57182,นาย อานนท วรรณา,57182@tmbbank.com,,|,กรุงเทพมหานคร|สวนหลวง,7000000234,ประกันภัยลูกค้ารายย่อย ทีมโครงการพิเศษ,7791,999164,เจ้าหน้าที่ - ประกันภัยรายย่อยโครงการใหม่,000,
A,57183,นางสาว วรรณิภา อังกาบ,57183@tmbbank.com,,|,กรุงเทพมหานคร|สวนหลวง,7000000431,ประกันภัยธุรกิจขนาดกลางและขนาดย่อม ทีม 1,7791,999093,เจ้าหน้าที่ชำนาญการ - ประกันภัยธุรกิจขนาดกลางและขนาดย่อม,000,
A,57184,นางสาว อมรลักษณ์ เต้าทอง,57184@tmbbank.com,,สาขา|,กรุงเทพมหานคร|บางกอกน้อย,0000000019,สาขาพรานนก,6930,000401,เจ้าหน้าที่บริการลูกค้า,019,สาขาพรานนก
A,57187,นางสาว นภาวรรณ มลิวัลย์,57187@tmbbank.com,,RAMA7 Floor 5|,กรุงเทพมหานคร|จตุจักร,8000100333,เร่งรัดหนี้รายย่อยสินเชื่อรถยนต์ 3,1503,000791,เจ้าหน้าที่ - เร่งรัดหนี้รายย่อย,000,
A,57188,นางสาว ชนัญญา นพคุณ,57188@tmbbank.com,,RAMA7 Floor 5|,กรุงเทพมหานคร|จตุจักร,8000100334,เร่งรัดหนี้รายย่อยสินเชื่อรถยนต์ 4,1504,000791,เจ้าหน้าที่ - เร่งรัดหนี้รายย่อย,000,
A,57191,นาย ภานุพงษ์ บุญพันธ์,57191@tmbbank.com,,Wong Sawang Floor 4|,กรุงเทพมหานคร|จตุจักร,7100101403,นายหน้าอิสระ 18,7793,777005,หัวหน้านายหน้าอิสระ,000,
A,57193,นาย กิจจ์พัฒน์ จันทร์ทร,57193@tmbbank.com,,Wong Sawang Floor 4|,กรุงเทพมหานคร|จตุจักร,7100101501,นายหน้าอิสระ 21,7793,777005,หัวหน้านายหน้าอิสระ,000,
A,57194,นางสาว จีราภรณ์ ไชยสงค์,57194@tmbbank.com,,Wong Sawang Floor 2|,กรุงเทพมหานคร|จตุจักร,8000100131,เร่งรัดหนี้รายย่อยสินเชื่อที่มีหลักประกัน 1 - Housing Loan,3061,000791,เจ้าหน้าที่ - เร่งรัดหนี้รายย่อย,000,
A,57195,นางสาว วารุณี สุขุมารินทร์,57195@tmbbank.com,,Wong Sawang Floor 2|,กรุงเทพมหานคร|จตุจักร,8000100131,เร่งรัดหนี้รายย่อยสินเชื่อที่มีหลักประกัน 1 - Housing Loan,3061,000791,เจ้าหน้าที่ - เร่งรัดหนี้รายย่อย,000,
A,57196,นางสาว ธัญวรัตน์ ศรีเพ็ง,57196@tmbbank.com,,Wong Sawang Floor 2|,กรุงเทพมหานคร|จตุจักร,8000100331,เร่งรัดหนี้รายย่อยสินเชื่อรถยนต์ 1,1501,000791,เจ้าหน้าที่ - เร่งรัดหนี้รายย่อย,000,
A,57198,นางสาว จรินทร อุ่นแก้ว,57198@tmbbank.com,,Wong Sawang Floor 2|,กรุงเทพมหานคร|จตุจักร,8000100331,เร่งรัดหนี้รายย่อยสินเชื่อรถยนต์ 1,1501,000791,เจ้าหน้าที่ - เร่งรัดหนี้รายย่อย,000,
A,57199,นาย ศิริวัฒน์ วระดี,57199@tmbbank.com,,RAMA7 Floor 5|,กรุงเทพมหานคร|จตุจักร,8000100333,เร่งรัดหนี้รายย่อยสินเชื่อรถยนต์ 3,1503,000791,เจ้าหน้าที่ - เร่งรัดหนี้รายย่อย,000,
A,57200,นางสาว สิริพร สินปรุ,57200@tmbbank.com,,RAMA7 Floor 5|,กรุงเทพมหานคร|จตุจักร,8000100334,เร่งรัดหนี้รายย่อยสินเชื่อรถยนต์ 4,1504,000791,เจ้าหน้าที่ - เร่งรัดหนี้รายย่อย,000,
A,57201,นางสาว กนกพร พันไธสง,57201@tmbbank.com,,RAMA7 Floor 5|,กรุงเทพมหานคร|จตุจักร,8000100334,เร่งรัดหนี้รายย่อยสินเชื่อรถยนต์ 4,1504,000791,เจ้าหน้าที่ - เร่งรัดหนี้รายย่อย,000,
A,57202,นางสาว นันธิญา คำสุวรรณ,57202@tmbbank.com,,Wong Sawang Floor 5|,กรุงเทพมหานคร|บางซื่อ,1500010133,บริการลูกค้าสัมพันธ์โทรศัพท์ 3,2083,000282,เจ้าหน้าที่ - บริการลูกค้าสัมพันธ์อินบาวน์,000,
A,57203,นางสาว ทวินันท์ นาไต้,57203@tmbbank.com,,|,กรุงเทพมหานคร|บางซื่อ,1500010133,บริการลูกค้าสัมพันธ์โทรศัพท์ 3,2083,000282,เจ้าหน้าที่ - บริการลูกค้าสัมพันธ์อินบาวน์,000,
A,57204,นางสาว สุภาวดี บุญกล่ำ,57204@tmbbank.com,,Wong Sawang Floor 5|,กรุงเทพมหานคร|บางซื่อ,1500010133,บริการลูกค้าสัมพันธ์โทรศัพท์ 3,2083,000282,เจ้าหน้าที่ - บริการลูกค้าสัมพันธ์อินบาวน์,000,
A,57206,นางสาว อุษณา จงสกุล,57206@tmbbank.com,,RAMA7 Floor 5|,กรุงเทพมหานคร|จตุจักร,8000100333,เร่งรัดหนี้รายย่อยสินเชื่อรถยนต์ 3,1503,000791,เจ้าหน้าที่ - เร่งรัดหนี้รายย่อย,000,
A,57207,นางสาว ธิดารัตน์ ดีโลก,57207@tmbbank.com,,Hub เชียงราย ชั้น 4|,เชียงราย|เมืองเชียงราย,0800203502,งานขายและเครือข่ายธุรกิจสินเชื่อรถยนต์ - เชียงราย 2,6352,002782,เจ้าหน้าที่ - สินเชื่อเช่าซื้อรถยนต์มือสอง,000,
A,57208,นาง ศิริพรรณ ชักชวนวงษ์,57208@tmbbank.com,,Hub พัทยา ชั้น 2|,ชลบุรี|บางละมุง,0800201307,งานขายและเครือข่ายธุรกิจสินเชื่อรถยนต์ CYC - พัทยา,4937,003040,เจ้าหน้าที่ - สินเชื่อรถแลกเงิน,000,
A,57209,นาย ณัฐพล วรรณชัย,57209@tmbbank.com,,Hub พิษณุโลก ชั้น 3|,พิษณุโลก|เมือง,0800203201,งานขายและเครือข่ายธุรกิจสินเชื่อรถยนต์ - พิษณุโลก 1,6321,002779,เจ้าหน้าที่ - สินเชื่อเช่าซื้อรถยนต์,000,
A,57210,นางสาว บุญญาพร เสริมศรี,57210@tmbbank.com,,Hub เชียงใหม่ ชั้น 3|,เชียงใหม่|เมือง,0800203101,งานขายและเครือข่ายธุรกิจสินเชื่อรถยนต์ - เชียงใหม่ 1,6311,002782,เจ้าหน้าที่ - สินเชื่อเช่าซื้อรถยนต์มือสอง,000,
A,57211,นางสาว ศิวาพร นัยนิตย์,57211@tmbbank.com,,Hub อุบลราชธานี ชั้น 3|,อุบลราชธานี|เมือง,0800204402,งานขายและเครือข่ายธุรกิจสินเชื่อรถยนต์ - อุบลราชธานี 2,6642,002779,เจ้าหน้าที่ - สินเชื่อเช่าซื้อรถยนต์,000,
A,57212,นางสาว ธัญญ์นภัส ไหลประเสริฐ,57212@tmbbank.com,,แอมเพิล ทาวเวอร์  ชั้น 4|,กรุงเทพมหานคร|บางนา,0800201207,งานขายและเครือข่ายธุรกิจสินเชื่อรถยนต์ CYC - บางนา,4927,003040,เจ้าหน้าที่ - สินเชื่อรถแลกเงิน,000,
A,57213,นางสาว สาวิตรี แก้วอาณา,57213@tmbbank.com,,Wong Sawang Floor 2|,กรุงเทพมหานคร|จตุจักร,8000100331,เร่งรัดหนี้รายย่อยสินเชื่อรถยนต์ 1,1501,000791,เจ้าหน้าที่ - เร่งรัดหนี้รายย่อย,000,
A,57223,นางสาว กมลพัชร เขียวอ่อน,57223@tmbbank.com,,Wong Sawang Floor 4|,กรุงเทพมหานคร|ราชเทวี,0800600299,ประจำ แนะนำผลิตภัณฑ์สินเชื่อรถยนต์,3019,003044,เจ้าหน้าที่ - การแนะนำผลิตภัณฑ์สินเชื่อรถยนต์,000,
A,57224,นางสาว วิจิตรา สำราญสุข,57224@tmbbank.com,,Wong Sawang Floor 4|,กรุงเทพมหานคร|ราชเทวี,0800600299,ประจำ แนะนำผลิตภัณฑ์สินเชื่อรถยนต์,3019,003044,เจ้าหน้าที่ - การแนะนำผลิตภัณฑ์สินเชื่อรถยนต์,000,
A,57225,นางสาว ขวัญฤทัย ปฏิภาคนิมิต,57225@tmbbank.com,,Wong Sawang Floor 4|,กรุงเทพมหานคร|ราชเทวี,0800600299,ประจำ แนะนำผลิตภัณฑ์สินเชื่อรถยนต์,3019,003044,เจ้าหน้าที่ - การแนะนำผลิตภัณฑ์สินเชื่อรถยนต์,000,
A,57226,นางสาว วิภาพร บัพพาแก้ว,57226@tmbbank.com,,Wong Sawang Floor 4|,กรุงเทพมหานคร|ราชเทวี,0800600299,ประจำ แนะนำผลิตภัณฑ์สินเชื่อรถยนต์,3019,003044,เจ้าหน้าที่ - การแนะนำผลิตภัณฑ์สินเชื่อรถยนต์,000,
A,57227,นาย วัชรพงศ์ พิมพ์อูป,57227@tmbbank.com,,Wong Sawang Floor 4|,กรุงเทพมหานคร|ราชเทวี,0800600299,ประจำ แนะนำผลิตภัณฑ์สินเชื่อรถยนต์,3019,003044,เจ้าหน้าที่ - การแนะนำผลิตภัณฑ์สินเชื่อรถยนต์,000,
A,57228,นางสาว สุภาภรณ์ ทับปลาขาว,57228@tmbbank.com,,Wong Sawang Floor 4|,กรุงเทพมหานคร|ราชเทวี,0800600299,ประจำ แนะนำผลิตภัณฑ์สินเชื่อรถยนต์,3019,003044,เจ้าหน้าที่ - การแนะนำผลิตภัณฑ์สินเชื่อรถยนต์,000,
A,57229,นาย ธรรมภาคิน ชุ่มชื่น,57229@tmbbank.com,,The Nine Floor 4 Zone F|,กรุงเทพมหานคร|สวนหลวง,7000000238,ประกันชีวิตรายย่อย,7791,999167,เจ้าหน้าที่ - ประกันชีวิตรายย่อย,000,
A,57230,นาย นนทกร แก้วไทย,57230@tmbbank.com,,Jasmine International Tower|,กรุงเทพมหานคร|สวนหลวง,7000000333,ประกันภัยรายย่อย โครงการซิกน่า,7791,999156,เจ้าหน้าที่ - ประกันภัยรายย่อย โครงการซิกน่า,000,
A,57231,นาย ธีระพันธ์ จงกสิกิจ,57231@tmbbank.com,,Jasmine International Tower|,กรุงเทพมหานคร|สวนหลวง,7000000333,ประกันภัยรายย่อย โครงการซิกน่า,7791,999156,เจ้าหน้าที่ - ประกันภัยรายย่อย โครงการซิกน่า,000,
A,57232,นาย จตุรงค์ อุ่นใจ,57232@tmbbank.com,,Jasmine International Tower|,กรุงเทพมหานคร|สวนหลวง,7000000333,ประกันภัยรายย่อย โครงการซิกน่า,7791,999156,เจ้าหน้าที่ - ประกันภัยรายย่อย โครงการซิกน่า,000,
A,57234,นาย เสกสรร สนิทจันทร์,57234@tmbbank.com,,Phetburi Office Floor 4|,กรุงเทพมหานคร|ราชเทวี,0800600199,ประจำ บริหารงานขายรถยึด,2659,002668,เจ้าหน้าที่ชำนาญการ  -  บริหารงานขายรถยึด,000,
A,80453,นางสาว เทียณธรณ์ วิงประวัติปภพ,80453@tmbbank.com,77778841\022995000 8841,สำนักงานใหญ่ ชั้น 17A|,กรุงเทพมหานคร|จตุจักร,0402400331,พัฒนาผลิตภัณฑ์สินเชื่อส่วนบุคคล และจัดหาลูกค้าใหม่,5461,003367,ผู้เชี่ยวชาญ - พัฒนาผลิตภัณฑ์สินเชื่อส่วนบุคคล และจัดหาลูกค้าใหม่,000,
A,80863,นางสาว อัมพร นาถพิริยรัตน์,80863@tmbbank.com,022924989\77774989,สำนักงานใหญ่ ชั้น 17A|,กรุงเทพมหานคร|จตุจักร,0402400232,บริหารพอร์ตสินเชื่อบัตรเครดิต,5372,001975,เจ้าหน้าที่อาวุโส - บริหารพอร์ตสินเชื่อบัตรเครดิต,000,
C,80910,นางสาว ชุลีพร วิชชาธิคม,80910@tmbbank.com,022995000#8131\77778131,สำนักงานใหญ่ ชั้น 26A|,กรุงเทพมหานคร|จตุจักร,0500200299,ประจำ บริหารความเสี่ยงด้านบัญชีเพื่อการธนาคาร,8269,000055,ผู้เชี่ยวชาญอาวุโส - บริหารความเสี่ยงด้านบัญชีเพื่อการธนาคาร,000,
C,82317,นางสาว สาวิตรี ทรัพย์บุญช่วย,82317@tmbbank.com,022594727-9,สำนักงานใหญ่ ชั้น 16A|,กรุงเทพมหานคร|จตุจักร,1500400031,KYC Center,9654,002991,หัวหน้า KYC Center,000,
A,85441,นาย ศรายุธ ป้องศูนย์,85441@tmbbank.com,0 2308 2955-7,สาขา|,กรุงเทพมหานคร|วัฒนา,0000000223,สาขาเทอมินอล 21 สุขุมวิท,1840,000401,เจ้าหน้าที่บริการลูกค้า,223,สาขาเทอมินอล 21 สุขุมวิท
C,88062,นางสาว สิริรัตน์ ปานเอี่ยม,88062@tmbbank.com,022202361\77712361,สำนักงานใหญ่ ชั้น 5B|,กรุงเทพมหานคร|จตุจักร,1500100135,ปฏิบัติการหลักทรัพย์และกองทุน,3951,00001834,เจ้าหน้าที่ปฏิบัติการและบริการ,000,
