FLAG,EMPLOYEE_ID
D,13638
D,17572
D,20697
D,22921
D,23232
D,25754
D,26053
D,26969
D,28318
D,28347
D,28545
D,28865
D,29086
D,29131
D,31393
D,32290
D,34260
D,41123
D,41154
D,41232
D,42092
D,43143
D,43201
D,44049
D,44195
D,45453
D,45474
D,45619
D,45737
D,45958
D,46039
D,46372
D,46413
D,46501
D,46532
D,46860
D,47060
D,47137
D,47645
D,47773
D,48382
D,48393
D,48560
D,48674
D,48813
D,48951
D,49129
D,49274
D,49683
D,49738
D,49756
D,49923
D,50091
D,50112
D,50294
D,51088
D,51291
D,51416
D,51811
D,51889
D,52042
D,52192
D,52285
D,52333
D,52939
D,52964
D,53408
D,53482
D,53569
D,53610
D,53712
D,53715
D,53818
D,53878
D,54018
D,54156
D,54235
D,54314
D,54437
D,54799
D,55022
D,55269
D,55517
D,55615
D,55725
D,55897
D,55949
D,56012
D,56013
D,56015
D,56017
D,56107
D,56145
D,56216
D,56306
D,56353
D,56367
D,56405
D,56415
D,56644
D,56687
D,56711
D,56723
D,56807
D,56840
D,56841
D,56844
D,56893
D,56920
D,57064
D,57182
D,57238
D,57253
D,57254
D,57255
D,57256
D,57258
D,57282
D,57307
D,57310
D,57391
D,57404
D,57418
D,57449
D,57521
D,57565
D,57583
D,57614
D,57625
D,57664
D,57735
D,57741
D,57789
D,57822
D,57832
D,57842
D,57861
D,57909
D,57941
D,58026
D,58033
D,58105
D,58112
D,58163
D,58191
D,58204
D,58205
D,58206
D,58230
D,58232
D,58237
D,58246
D,58252
D,58253
D,58260
D,58300
D,58327
D,58341
D,58350
D,58374
D,58466
D,58476
D,80725
D,80954
D,81481
D,81497
D,82870
D,82969
D,83000
D,83029
D,83030
D,83133
D,83263
D,84124
D,85053
D,85120
D,85411
D,85541
D,85544
D,85570
D,85887
D,86361
D,86410
D,87036
D,87342
D,87461
D,87562
D,88134
D,88460
D,88575
D,88715
D,88732
D,88938
D,95077
D,95349
D,95353
D,95385
D,95388
D,95389
D,95396
D,95543
D,95595
D,95610
D,95621
D,95630
D,95686
D,95694
D,97084
D,97198
D,97304
D,TA001
