FLAG,EMPLOYEE_ID
D,07730
D,08161
D,11316
D,11992
D,15072
D,16163
D,16407
D,18104
D,18763
D,19754
D,20109
D,20387
D,21517
D,21781
D,22170
D,22701
D,22754
D,23217
D,23537
D,23538
D,24085
D,24794
D,27272
D,27729
D,27885
D,28017
D,28567
D,29739
D,30216
D,30321
D,30542
D,30635
D,31021
D,31699
D,32333
D,32540
D,33054
D,33870
D,40016
D,41098
D,42232
D,42301
D,42317
D,42997
D,43910
D,44084
D,44542
D,44585
D,44602
D,44724
D,45960
D,46170
D,46455
D,46594
D,46712
D,46875
D,46888
D,47049
D,47181
D,47405
D,47784
D,47813
D,47860
D,47981
D,47983
D,48090
D,48541
D,48716
D,48760
D,48825
D,48873
D,49062
D,49639
D,49663
D,49855
D,49979
D,50013
D,50057
D,50150
D,50223
D,50291
D,50320
D,50560
D,50564
D,50672
D,50856
D,51022
D,51487
D,51522
D,51628
D,51756
D,51851
D,51912
D,51983
D,52070
D,52117
D,52186
D,52248
D,52281
D,52344
D,52366
D,52374
D,52404
D,52431
D,52619
D,52638
D,52665
D,52844
D,52877
D,52922
D,53026
D,53171
D,53196
D,53239
D,53365
D,53404
D,53433
D,53442
D,53497
D,53505
D,53564
D,53566
D,53573
D,53585
D,53652
D,53655
D,53667
D,53680
D,53686
D,53737
D,53830
D,53856
D,53927
D,53928
D,54064
D,54174
D,54183
D,54197
D,54223
D,54225
D,54256
D,54277
D,54280
D,54322
D,54352
D,54466
D,54469
D,54525
D,54531
D,54551
D,54575
D,54586
D,54654
D,54698
D,54728
D,54871
D,54983
D,55019
D,55123
D,55136
D,55181
D,55281
D,55328
D,55398
D,55492
D,55531
D,55587
D,55591
D,55629
D,55652
D,55661
D,55687
D,55692
D,55693
D,55697
D,55709
D,55726
D,55727
D,55748
D,55754
D,55758
D,55791
D,55818
D,55822
D,55831
D,55869
D,55901
D,55914
D,55952
D,55995
D,55996
D,56020
D,56047
D,56068
D,56093
D,56101
D,56125
D,56147
D,56200
D,56343
D,56351
D,56377
D,56386
D,56426
D,56437
D,56460
D,56483
D,56495
D,56497
D,56502
D,56521
D,56538
D,56591
D,56614
D,56658
D,56691
D,56698
D,56706
D,56710
D,56734
D,56788
D,56789
D,56851
D,56860
D,56869
D,56881
D,56894
D,56907
D,56917
D,56923
D,56929
D,56942
D,56956
D,56957
D,57028
D,57035
D,57047
D,57051
D,57061
D,57068
D,57070
D,57114
D,57130
D,57136
D,57176
D,57178
D,57187
D,57190
D,57216
D,57251
D,57252
D,57260
D,57279
D,57290
D,57301
D,57302
D,57312
D,57328
D,57351
D,57373
D,57438
D,57477
D,57480
D,57502
D,753957
D,80218
D,80439
D,80450
D,80581
D,80671
D,80719
D,80769
D,80853
D,80866
D,80901
D,80902
D,80916
D,80959
D,81067
D,81361
D,81486
D,81956
D,82060
D,82175
D,82179
D,82321
D,82430
D,82442
D,82479
D,82582
D,82693
D,82979
D,83053
D,83231
D,83330
D,83340
D,83489
D,83507
D,83623
D,83695
D,83734
D,83916
D,83921
D,84067
D,84087
D,84142
D,84177
D,84372
D,84908
D,85079
D,85154
D,85174
D,85345
D,85441
D,85446
D,85680
D,85681
D,85697
D,85699
D,85723
D,85823
D,85971
D,86019
D,86170
D,86286
D,86506
D,86617
D,86618
D,86625
D,86640
D,86699
D,86880
D,87100
D,87453
D,87517
D,87522
D,87532
D,87544
D,87546
D,87983
D,88119
D,88152
D,88384
D,88498
D,88541
D,88566
D,88611
D,89072
D,89130
D,89188
D,95265
D,95354
D,95362
D,95403
D,97053
D,97075
D,97137
D,97244
D,97255
D,97307
D,97328
D,CSN01
D,FIS02
D,ITI24
D,ITI27
D,ITI32
D,ITI71
D,SME40
