FLAG,EMPLOYEE_ID
D,09029
D,09916
D,11645
D,11659
D,11871
D,13416
D,13479
D,17846
D,20677
D,25115
D,26048
D,27392
D,28594
D,29477
D,29546
D,31989
D,33652
D,33871
D,41112
D,43002
D,43325
D,44281
D,44625
D,45112
D,45290
D,45485
D,45744
D,46051
D,46347
D,46879
D,46884
D,47014
D,47716
D,47882
D,48145
D,48227
D,48692
D,48698
D,48711
D,48965
D,49011
D,49058
D,49063
D,49101
D,49172
D,49291
D,49756
D,49769
D,49774
D,50008
D,50443
D,50484
D,50884
D,51576
D,51596
D,51636
D,51720
D,52258
D,52279
D,52356
D,52419
D,52510
D,52614
D,52670
D,52692
D,52697
D,52919
D,53015
D,53308
D,53656
D,53749
D,53974
D,54009
D,54054
D,54103
D,54113
D,54201
D,54229
D,54296
D,54317
D,54472
D,54489
D,54490
D,54562
D,54674
D,54738
D,54791
D,54797
D,54819
D,54843
D,55001
D,55030
D,55140
D,55173
D,55200
D,55202
D,55272
D,55276
D,55394
D,55449
D,55479
D,55498
D,55529
D,55533
D,55594
D,55657
D,55718
D,55862
D,56063
D,56140
D,56186
D,56259
D,56311
D,56376
D,56431
D,56456
D,56461
D,56567
D,56605
D,56630
D,56700
D,56735
D,56799
D,56842
D,56855
D,56875
D,56943
D,56948
D,56992
D,57005
D,57008
D,57009
D,57032
D,57039
D,57115
D,57202
D,57206
D,57215
D,57313
D,57337
D,57371
D,57389
D,57422
D,57442
D,57458
D,57495
D,57499
D,57516
D,57520
D,57561
D,57635
D,57648
D,57725
D,57736
D,57750
D,57793
D,57848
D,57851
D,57864
D,57867
D,57879
D,57919
D,57925
D,57936
D,57956
D,57963
D,57969
D,58036
D,58044
D,58061
D,58067
D,58085
D,58097
D,58129
D,58136
D,58141
D,58165
D,58167
D,58171
D,58177
D,58183
D,58192
D,58238
D,58274
D,80382
D,80436
D,80786
D,81011
D,81627
D,82351
D,82365
D,82452
D,82555
D,82680
D,82867
D,82899
D,83174
D,83618
D,83741
D,84265
D,84302
D,84317
D,84490
D,84644
D,84740
D,84814
D,84959
D,85242
D,85270
D,85308
D,85857
D,85860
D,86259
D,86328
D,86620
D,86745
D,86892
D,87462
D,87826
D,87916
D,88130
D,88150
D,88425
D,88562
D,88588
D,88868
D,95208
D,95219
D,95332
D,95353
D,95523
D,95571
D,95576
D,95595
D,95600
D,95603
D,95610
D,95623
D,97004
D,97228
