FLAG,EMPLOYEE_ID,FULL_NAME,EMAIL,PHONE_NO,WORKPLACE,WORKAREA,DEPARTMENT_ID,DEPARTMENT_DESC_TH,COST_CODE,JOB_CODE,JOB_NAME_TH,SECT_CODE,SECT_NAME_TH
C,09670,นาง จินตนา จันทร์สงวน,09670@tmbbank.com,032621990,สาขา|,เพชรบุรี|บ้าานลาด,0000000521,สาขาโรบินสัน เพชรบุรี,6980,000008,ผู้จัดการสาขา,521,สาขาโรบินสัน เพชรบุรี
C,15361,นาง อมรรัตน์ ศรีศรุติพร,15361@tmbbank.com,024242826,สาขา|,กรุงเทพมหานคร|ภาษีเจริญ,0000000125,สาขาโรงพยาบาลพญาไท 3,9260,001925,ผู้ช่วยผู้จัดการสาขา,125,สาขาโรงพยาบาลพญาไท 3
C,18918,นางสาว ญาณี เพียตสิงห์,18918@tmbbank.com,023/723-5401,สาขา|,กรุงเทพมหานคร|สายไหม,0000000932,สาขาบิ๊กซี สุขาภิบาล 5,6830,000008,ผู้จัดการสาขา,932,สาขาบิ๊กซี สุขาภิบาล 5
C,27948,นางสาว จิรนันท์ นิจอนันต์,27948@tmbbank.com,022991671,สำนักงานใหญ่ ชั้น 15A|,กรุงเทพมหานคร|จตุจักร,0700200334,วิเคราะห์และรายงานงบการเงิน,2164,001619,หัวหน้าวิเคราะห์และรายงานงบการเงิน,000,
C,46440,นางสาว ดลมินทร์ ศิริพรมนัส,46440@tmbbank.com,,สาขา|,นนทบุรี|ลำลูกกา,0000000099,สาขาเมืองเอก รังสิต,6880,002736,เจ้าหน้าที่ส่งเสริมธุรกิจสาขา,099,สาขาเมืองเอก รังสิต
C,50064,นาย ธนวัฒน์ ละอองแก้ว,50064@tmbbank.com,,สาขา|,สตูล|เมือง,0000000419,สาขาสตูล,7830,002737,ผู้ช่วยเจ้าหน้าที่ส่งเสริมธุรกิจสาขา,419,สาขาสตูล
C,82065,นางสาว พัทธนันท์ วรรณประพันธ์,82065@tmbbank.com,032604464-7,สาขา|,ประจวบคีรีขันธ์|เมือง,0000000382,สาขาประจวบคีรีขันธ์,6980,002737,ผู้ช่วยเจ้าหน้าที่ส่งเสริมธุรกิจสาขา,382,สาขาประจวบคีรีขันธ์
C,82513,นาง อัญชลี นิลดำ,82513@tmbbank.com,024892087-9,สาขา|,กรุงเทพมหานคร|หนองแขม,0000000197,สาขาถนนเพชรเกษม-หนองแขม,9260,001925,ผู้ช่วยผู้จัดการสาขา,197,สาขาถนนเพชรเกษม-หนองแขม
C,82515,นางสาว วชิราภรณ์ มั่นภูผา,82515@tmbbank.com,02-489-2087-89,สาขา|,กรุงเทพมหานคร|บางบอน,0000000709,สาขาบิ๊กซี บางบอน,9260,002736,เจ้าหน้าที่ส่งเสริมธุรกิจสาขา,709,สาขาบิ๊กซี บางบอน
C,82517,นาง อุษณีย์ บุณยเกียรติ,82517@tmbbank.com,024442927,สาขา|,กรุงเทพมหานคร|หนองแขม,0000000197,สาขาถนนเพชรเกษม-หนองแขม,9260,002736,เจ้าหน้าที่ส่งเสริมธุรกิจสาขา,197,สาขาถนนเพชรเกษม-หนองแขม
C,82518,นางสาว จิรัฐติกาล ติตถะสิริ,82518@tmbbank.com,0 2801 1004-6,สาขา|,กรุงเทพมหานคร|ภาษีเจริญ,0000000138,สาขาซีคอน บางแค,9260,002739,เจ้าหน้าที่ธุรกิจการเงิน,138,สาขาซีคอน บางแค
C,82519,นางสาว ณิชาภัส สังข์ทอง,82519@tmbbank.com,0 2489 2087-9,สาขา|,กรุงเทพมหานคร|ทวีวัฒนา,0000000079,สาขาพุทธมณฑล,9260,002737,ผู้ช่วยเจ้าหน้าที่ส่งเสริมธุรกิจสาขา,079,สาขาพุทธมณฑล
C,82847,นาย สมรรถ อุ่นเอม,82847@tmbbank.com,025527467,สาขา|,กรุงเทพมหานคร|บางเขน,0000000748,สาขาเซ็นทรัล รามอินทรา,6830,000008,ผู้จัดการสาขา,748,สาขาเซ็นทรัล รามอินทรา
C,82866,นางสาว รัชนีวรรณ เกาะสมุทร,82866@tmbbank.com,025210612-3,สาขา|,นนทบุรี|ลำลูกกา,0000000099,สาขาเมืองเอก รังสิต,6880,000008,ผู้จัดการสาขา,099,สาขาเมืองเอก รังสิต
C,82951,นาง นัทธมน เจริญเรืองทรัพย์,82951@tmbbank.com,0-2 990-8806-8,สาขา|,นนทบุรี|ลำลูกกา,0000000099,สาขาเมืองเอก รังสิต,6880,002736,เจ้าหน้าที่ส่งเสริมธุรกิจสาขา,099,สาขาเมืองเอก รังสิต
C,82957,นางสาว ไพรินทร์ พิมพ์ผัน,82957@tmbbank.com,0-2 516-1230-33,สาขา|,นนทบุรี|ลำลูกกา,0000000099,สาขาเมืองเอก รังสิต,6880,002739,เจ้าหน้าที่ธุรกิจการเงิน,099,สาขาเมืองเอก รังสิต
C,82958,นางสาว รัชณีวรรณ นาคหนู,82958@tmbbank.com,0 2569 1655,สาขา|,นนทบุรี|ลำลูกกา,0000000099,สาขาเมืองเอก รังสิต,6880,002739,เจ้าหน้าที่ธุรกิจการเงิน,099,สาขาเมืองเอก รังสิต
C,82960,นาง อัญชลี มากสัมฤทธิ์,82960@tmbbank.com,029945747-51,สาขา|,นนทบุรี|ลำลูกกา,0000000099,สาขาเมืองเอก รังสิต,6880,002737,ผู้ช่วยเจ้าหน้าที่ส่งเสริมธุรกิจสาขา,099,สาขาเมืองเอก รังสิต
C,82962,นาง สตรีรัตน์ ราษฎร์ดุษฎี,82962@tmbbank.com,02-5313445,สาขา|,นนทบุรี|ลำลูกกา,0000000099,สาขาเมืองเอก รังสิต,6880,001925,ผู้ช่วยผู้จัดการสาขา,099,สาขาเมืองเอก รังสิต
C,82964,นางสาว พรพิมล โกมลวานิช,82964@tmbbank.com,0-25161230,สาขา|,นนทบุรี|ลำลูกกา,0000000099,สาขาเมืองเอก รังสิต,6880,002736,เจ้าหน้าที่ส่งเสริมธุรกิจสาขา,099,สาขาเมืองเอก รังสิต
C,83292,นาย ปรีชา ตั้งจิตรักษาพร,83292@tmbbank.com,02-3232960-1,สาขา|,กรุงเทพมหานคร|บางขุนเทียน,0000000187,สาขาสี่แยกถนนบางขุนเทียน-ถนนพระรามที่ 2,9260,000008,ผู้จัดการสาขา,187,สาขาสี่แยกถนนบางขุนเทียน-ถนนพระรามที่ 2
C,84471,นางสาว สลิลทิพย์ นวนกลับ,84471@tmbbank.com,074725251-3,สาขา|,สตูล|เมือง,0000000419,สาขาสตูล,7830,000008,ผู้จัดการสาขา,419,สาขาสตูล
C,84472,นาย ไพโรจน์ เพ็ชรวงศ์,84472@tmbbank.com,,สาขา|,ตรัง|เมืองตรัง,0000000827,สาขาทับเที่ยง (ตรัง),7830,001925,ผู้ช่วยผู้จัดการสาขา,827,สาขาทับเที่ยง (ตรัง)
C,84473,นาง อารยา มัคเมธี,84473@tmbbank.com,074725251-3,สาขา|,สตูล|เมือง,0000000419,สาขาสตูล,7830,002738,เจ้าหน้าที่อาวุโสธุรกิจการเงิน,419,สาขาสตูล
C,84475,นาย เดะแว สะแลแม,84475@tmbbank.com,073335950-1,สาขา|,สตูล|เมือง,0000000419,สาขาสตูล,7830,002736,เจ้าหน้าที่ส่งเสริมธุรกิจสาขา,419,สาขาสตูล
C,84476,นางสาว สุภาวดี คงเกต,84476@tmbbank.com,074725253,สาขา|,ตรัง|เมือง,0000000359,สาขาตรัง,7830,002739,เจ้าหน้าที่ธุรกิจการเงิน,359,สาขาตรัง
C,84531,นาย กฤษ พึ่งพงษ์,84531@tmbbank.com,032-604464-7,สาขา|,ประจวบคีรีขันธ์|เมือง,0000000382,สาขาประจวบคีรีขันธ์,6980,001925,ผู้ช่วยผู้จัดการสาขา,382,สาขาประจวบคีรีขันธ์
C,84533,นางสาว ญาณิศา เขียวประชุม,84533@tmbbank.com,032-604464,สาขา|,ประจวบคีรีขันธ์|เมือง,0000000382,สาขาประจวบคีรีขันธ์,6980,002738,เจ้าหน้าที่อาวุโสธุรกิจการเงิน,382,สาขาประจวบคีรีขันธ์
C,85228,นางสาว ศุภรัตน์ ด้วงใบบัว,85228@tmbbank.com,0 2489 2087-9,สาขา|,นครปฐม|นครชัยศรี,0000000918,สาขานครชัยศรี,6970,002737,ผู้ช่วยเจ้าหน้าที่ส่งเสริมธุรกิจสาขา,918,สาขานครชัยศรี
C,85332,นางสาว สุโรจนา ยานา,85332@tmbbank.com,0 7472 5251-3,สาขา|,สตูล|เมือง,0000000419,สาขาสตูล,7830,002737,ผู้ช่วยเจ้าหน้าที่ส่งเสริมธุรกิจสาขา,419,สาขาสตูล
C,85439,นางสาว หทัยรัตน์ พรมสมบัติ,85439@tmbbank.com,02-5319774,สาขา|,นนทบุรี|ลำลูกกา,0000000099,สาขาเมืองเอก รังสิต,6880,002737,ผู้ช่วยเจ้าหน้าที่ส่งเสริมธุรกิจสาขา,099,สาขาเมืองเอก รังสิต
