FLAG,EMPLOYEE_ID
D,04884
D,07210
D,07246
D,11264
D,12077
D,13657
D,14360
D,16040
D,18917
D,18941
D,20071
D,20944
D,24602
D,25249
D,27568
D,29441
D,29799
D,30018
D,30710
D,31706
D,32572
D,33245
D,33764
D,33885
D,34382
D,40035
D,40286
D,41316
D,41798
D,42325
D,42387
D,42661
D,43149
D,43269
D,45298
D,45573
D,45731
D,45875
D,46427
D,46469
D,46638
D,46887
D,46892
D,47552
D,47712
D,47718
D,47909
D,47980
D,48288
D,48820
D,49016
D,49312
D,49539
D,49629
D,49649
D,49786
D,49990
D,50151
D,50289
D,50415
D,50452
D,50867
D,51118
D,51265
D,51362
D,51443
D,51464
D,51468
D,51520
D,51692
D,51747
D,51946
D,52119
D,52383
D,52652
D,53022
D,53054
D,53055
D,53072
D,53168
D,53204
D,53233
D,53261
D,53453
D,53468
D,53507
D,53518
D,53641
D,53670
D,53731
D,53963
D,53964
D,54030
D,54060
D,54164
D,54181
D,54234
D,54268
D,54399
D,54409
D,54410
D,54411
D,54421
D,54477
D,54546
D,54549
D,54583
D,54634
D,54684
D,54940
D,54964
D,55056
D,55076
D,55090
D,55095
D,55139
D,55180
D,55215
D,55477
D,55550
D,55572
D,55618
D,55698
D,55750
D,55787
D,55814
D,55823
D,55830
D,55838
D,55920
D,55960
D,56027
D,56074
D,56084
D,56091
D,56228
D,56346
D,56402
D,56425
D,56451
D,56468
D,56516
D,56529
D,56542
D,56543
D,56557
D,56566
D,56572
D,56579
D,56612
D,56618
D,56619
D,56620
D,56695
D,56754
D,56773
D,56797
D,56811
D,56879
D,56880
D,56895
D,56921
D,56935
D,56955
D,56989
D,56999
D,57001
D,57022
D,57025
D,57057
D,57075
D,57124
D,57150
D,57157
D,57158
D,57161
D,57162
D,57167
D,57168
D,57191
D,57204
D,57245
D,57273
D,57356
D,57397
D,57416
D,57460
D,57461
D,57471
D,57473
D,57475
D,57478
D,57501
D,57534
D,57538
D,57566
D,57601
D,57616
D,57627
D,57628
D,57629
D,57646
D,57651
D,57696
D,57704
D,57709
D,57720
D,57721
D,57726
D,57729
D,57732
D,57737
D,57751
D,57753
D,57776
D,57807
D,57809
D,57816
D,57833
D,57855
D,57907
D,57916
D,753990
D,80114
D,80321
D,80509
D,80569
D,80573
D,80664
D,80887
D,80963
D,81066
D,81211
D,81213
D,81556
D,81784
D,81785
D,81798
D,81948
D,82041
D,82176
D,82315
D,82328
D,82525
D,82624
D,82629
D,82638
D,82686
D,83026
D,83054
D,83276
D,83317
D,83343
D,83615
D,83648
D,83662
D,83696
D,83729
D,83817
D,84014
D,84393
D,84606
D,84884
D,85126
D,85642
D,85821
D,85863
D,86530
D,86729
D,86772
D,86823
D,86971
D,87022
D,88093
D,88120
D,88124
D,88127
D,88258
D,88293
D,88583
D,88636
D,88709
D,88731
D,88829
D,88948
D,95162
D,95379
D,95387
D,95406
D,95537
D,97047
D,97130
D,97144
D,97330
D,97345
D,CIN05
