FLAG,EMPLOYEE_ID
D,14628
D,50880
D,51180
D,51300
D,51387
D,51552
D,51564
D,16949
D,52378
D,52411
D,52555
D,52581
D,52622
D,52661
D,52735
D,52872
D,52912
D,52915
D,52941
D,52945
D,24192
D,29024
D,32733
D,33595
D,33675
D,41158
D,42186
D,42693
D,44192
D,45130
D,45679
D,46111
D,46551
D,48893
D,48927
D,48983
D,49435
D,49819
D,50099
D,14149
D,50231
