FLAG,EMPLOYEE_ID
D,04280
D,04840
D,06575
D,06727
D,14150
D,15702
D,16482
D,18763
D,19759
D,22074
D,22170
D,23217
D,24902
D,27382
D,31137
D,31824
D,32344
D,32654
D,33164
D,33680
D,33764
D,34218
D,41458
D,42074
D,42972
D,42996
D,43269
D,44275
D,45510
D,45649
D,46440
D,47255
D,47262
D,47513
D,47606
D,47804
D,47958
D,47980
D,48119
D,48152
D,48537
D,48604
D,48679
D,49003
D,49113
D,49138
D,49169
D,49320
D,49650
D,49654
D,49770
D,49797
D,49804
D,49968
D,50064
D,50313
D,50476
D,50576
D,51265
D,51418
D,51442
D,51784
D,51886
D,51956
D,51986
D,51987
D,52172
D,52277
D,52407
D,52426
D,52466
D,52714
D,52763
D,52764
D,52961
D,53041
D,53189
D,53230
D,53244
D,53282
D,53343
D,53462
D,53507
D,53679
D,53694
D,53779
D,53812
D,53834
D,53919
D,53960
D,53997
D,54049
D,54060
D,54071
D,54075
D,54082
D,54097
D,54181
D,54409
D,54410
D,54421
D,54549
D,54612
D,54626
D,54684
D,54705
D,54811
D,55184
D,55270
D,55387
D,55391
D,55443
D,55456
D,55461
D,55468
D,55472
D,55545
D,55550
D,55689
D,55779
D,55838
D,55916
D,55935
D,55948
D,56027
D,56039
D,56091
D,56095
D,56114
D,56118
D,56127
D,56133
D,56135
D,56136
D,56177
D,56185
D,56201
D,56225
D,56241
D,56291
D,56298
D,56299
D,56305
D,56355
D,56420
D,56424
D,56429
D,56462
D,56490
D,56543
D,56560
D,56570
D,56581
D,56615
D,56616
D,56617
D,56619
D,56620
D,56670
D,56695
D,56740
D,56754
D,56758
D,56778
D,56797
D,56798
D,56814
D,56822
D,56845
D,56856
D,56867
D,56868
D,56879
D,56883
D,56894
D,56960
D,56962
D,56974
D,57012
D,57028
D,57047
D,57061
D,57091
D,57092
D,57110
D,57119
D,57130
D,57136
D,57169
D,57178
D,57213
D,57216
D,57248
D,57250
D,57251
D,57271
D,57331
D,57348
D,57353
D,57365
D,57373
D,57378
D,57399
D,57432
D,57438
D,57477
D,57478
D,57480
D,57491
D,57502
D,57579
D,57609
D,57616
D,753963
D,753975
D,753992
D,753994
D,80074
D,80664
D,80719
D,80853
D,80887
D,81211
D,81213
D,81300
D,81457
D,81486
D,82089
D,82121
D,82279
D,82334
D,82350
D,82477
D,82519
D,82638
D,82693
D,82864
D,82910
D,82917
D,82921
D,82955
D,83094
D,83224
D,83324
D,83385
D,83522
D,83728
D,84068
D,84128
D,84178
D,84185
D,84409
D,84816
D,84956
D,85343
D,85453
D,85795
D,86128
D,86129
D,86132
D,86170
D,86616
D,86772
D,86864
D,86908
D,86933
D,87021
D,87683
D,88093
D,88222
D,88364
D,88414
D,88739
D,88767
D,88989
D,95224
D,95239
D,95354
D,95373
D,95379
D,97083
D,97086
D,97130
D,97233
D,97284
D,97347
D,CIN03
D,CSN01
D,CST02
