FLAG,EMPLOYEE_ID,FULL_NAME,EMAIL,PHONE_NO,WORKPLACE,WORKAREA,DEPARTMENT_ID,DEPARTMENT_DESC_TH,COST_CODE,JOB_CODE,JOB_NAME_TH,SECT_CODE,SECT_NAME_TH
C,07807,นางสาว ธิติมา ถิรวัฒนกุล,07807@tmbbank.com,02-1438310,สาขา|,กรุงเทพมหานคร|ดอนเมือง,0000000057,สาขากองบัญชาการกองทัพอากาศ,6910,002735,เจ้าหน้าที่อาวุโสส่งเสริมธุรกิจสาขา,057,สาขากองบัญชาการกองทัพอากาศ
C,19305,นางสาว นพรัตน์ ตรีเศียร,19305@tmbbank.com,053-733146,สาขา|,เชียงราย|แม่สาย,0000000784,สาขาแม่สาย (ถนนพหลโยธิน-เชียงราย),7120,001925,ผู้ช่วยผู้จัดการสาขา,784,สาขาแม่สาย (ถนนพหลโยธิน-เชียงราย)
C,22892,นางสาว สุภาวัลย์ อาจรักษา,22892@tmbbank.com,037-231280,สาขา|,สระแก้ว|อรัญประเทศ,0000000338,สาขาอรัญประเทศ,9280,002736,เจ้าหน้าที่ส่งเสริมธุรกิจสาขา,338,สาขาอรัญประเทศ
C,25798,นางสาว ศลิษา อุดมวิโรจน์สิน,25798@tmbbank.com,038641002,สาขา|,ระยอง|เมือง,0000000456,สาขามาบตาพุด,9280,001925,ผู้ช่วยผู้จัดการสาขา,456,สาขามาบตาพุด
C,27224,นางสาว ขนิษฐา มาสุข,27224@tmbbank.com,038610229,สาขา|,สระแก้ว|เมืองสระแก้ว,0000000679,สาขาบิ๊กซี สระแก้ว,9280,000008,ผู้จัดการสาขา,679,สาขาบิ๊กซี สระแก้ว
C,33996,นางสาว อทิตยา ชูเชิด,33996@tmbbank.com,038610229,สาขา|,ระยอง|เมืองระยอง,0000000644,สาขาเซ็นทรัลพลาซา ระยอง,9280,002736,เจ้าหน้าที่ส่งเสริมธุรกิจสาขา,644,สาขาเซ็นทรัลพลาซา ระยอง
C,34335,นางสาว เปรมปรวีร์ ใจการ,34335@tmbbank.com,,สาขา|,เชียงราย|แม่สาย,0000000784,สาขาแม่สาย (ถนนพหลโยธิน-เชียงราย),7120,003072,เจ้าหน้าที่อาวุโส - ส่งเสริมการลงทุน,784,สาขาแม่สาย (ถนนพหลโยธิน-เชียงราย)
C,43000,นางสาว มะลิวัลย์ เอี่ยมสะอาด,43000@tmbbank.com,,สาขา|,จันทบุรี|เมืองจันทบุรี,0000000535,สาขาถนนเบญจมราชูทิศ-จันทบุรี,9280,003077,เจ้าหน้าที่ - สินเชื่อบ้าน,535,สาขาถนนเบญจมราชูทิศ-จันทบุรี
C,45193,นาย ธนนต์ ทาสัก,45193@tmbbank.com,,สาขา|,เชียงราย|แม่สาย,0000000784,สาขาแม่สาย (ถนนพหลโยธิน-เชียงราย),7120,000401,เจ้าหน้าที่บริการลูกค้า,784,สาขาแม่สาย (ถนนพหลโยธิน-เชียงราย)
C,52597,นางสาว สุภาวดี สาวิพัฒน์,52597@tmbbank.com,,สาขา|,กรุงเทพมหานคร|สายไหม,0000000932,สาขาบิ๊กซี สุขาภิบาล 5,6910,002737,ผู้ช่วยเจ้าหน้าที่ส่งเสริมธุรกิจสาขา,932,สาขาบิ๊กซี สุขาภิบาล 5
C,53543,นางสาว ณัฐพร เพ็ชรสมบัติ,53543@tmbbank.com,,สาขา|,สระแก้ว|อรัญประเทศ,0000000338,สาขาอรัญประเทศ,9280,000401,เจ้าหน้าที่บริการลูกค้า,338,สาขาอรัญประเทศ
C,53726,นาย ปิยะรัฐ สมผลวัฒนา,53726@tmbbank.com,,สาขา|,ระยอง|เมืองระยอง,0000000644,สาขาเซ็นทรัลพลาซา ระยอง,9280,000401,เจ้าหน้าที่บริการลูกค้า,644,สาขาเซ็นทรัลพลาซา ระยอง
C,54190,นางสาว สุดารัตน์ ด้วงรักษา,54190@tmbbank.com,,สาขา|,ระยอง|นิคมพัฒนา,0000000668,สาขานิคมพัฒนา,9280,000401,เจ้าหน้าที่บริการลูกค้า,668,สาขานิคมพัฒนา
C,55043,นางสาว เปมิกา ทาปัญญา,55043@tmbbank.com,,สาขา|,เชียงราย|แม่สาย,0000000784,สาขาแม่สาย (ถนนพหลโยธิน-เชียงราย),7120,000401,เจ้าหน้าที่บริการลูกค้า,784,สาขาแม่สาย (ถนนพหลโยธิน-เชียงราย)
C,55728,นางสาว หาสนี ศรีมาตร,55728@tmbbank.com,,สาขา|,กรุงเทพมหานคร|สายไหม,0000000049,สาขาโรงพยาบาลภูมิพลอดุลยเดช,6910,000401,เจ้าหน้าที่บริการลูกค้า,049,สาขาโรงพยาบาลภูมิพลอดุลยเดช
C,56637,นางสาว มาลี กำลังฤทธิ์,56637@tmbbank.com,,สาขา|,ขอนแก่น|เมืองขอนแก่น,0000000795,สาขาถนนศรีจันทร์,7440,000401,เจ้าหน้าที่บริการลูกค้า,795,สาขาถนนศรีจันทร์
C,82876,นางสาว พจมาน รักษี,82876@tmbbank.com,02-5510638,สาขา|,กรุงเทพมหานคร|สายไหม,0000000035,สาขาตลาดสะพานใหม่ดอนเมือง,6910,001925,ผู้ช่วยผู้จัดการสาขา,035,สาขาตลาดสะพานใหม่ดอนเมือง
C,82883,นาง นพวรรณ พรมโคตร,82883@tmbbank.com,029435630,สาขา|,กรุงเทพมหานคร|บางเขน,0000000748,สาขาเซ็นทรัล รามอินทรา,6910,001925,ผู้ช่วยผู้จัดการสาขา,748,สาขาเซ็นทรัล รามอินทรา
C,83701,นาง รุ่งนภา จันทวิสูตร,83701@tmbbank.com,053-491969,สาขา|,เชียงใหม่|สันทราย,0000000669,สาขาสันทราย,7120,003072,เจ้าหน้าที่อาวุโส - ส่งเสริมการลงทุน,669,สาขาสันทราย
C,83832,นางสาว นภาพร ม่องคำหมื่น,83832@tmbbank.com,043288361-3,สาขา|,ขอนแก่น|เมือง,0000000464,สาขาถนนกลางเมือง (ขอนแก่น),7440,002735,เจ้าหน้าที่อาวุโสส่งเสริมธุรกิจสาขา,464,สาขาถนนกลางเมือง (ขอนแก่น)
C,83840,นางสาว เสาวลักษณ์ พรหมบุญตา,83840@tmbbank.com,043-221163,สาขา|,ขอนแก่น|เมือง,0000000464,สาขาถนนกลางเมือง (ขอนแก่น),7440,001925,ผู้ช่วยผู้จัดการสาขา,464,สาขาถนนกลางเมือง (ขอนแก่น)
C,83900,นางสาว วนิดา พรสุขสว่าง,83900@tmbbank.com,044213993,สาขา|,ขอนแก่น|เมืองขอนแก่น,0450800536,ประจำ สำนักงานเขตธุรกิจสาขา-ขอนแก่น,7449,000008,ผู้จัดการสาขา,000,
C,84165,นางสาว ไกรวัลย์ มงคลเข็ม,84165@tmbbank.com,037-643145,สาขา|,สระแก้ว|เมืองสระแก้ว,0000000679,สาขาบิ๊กซี สระแก้ว,9280,001925,ผู้ช่วยผู้จัดการสาขา,679,สาขาบิ๊กซี สระแก้ว
C,84172,นาย ภัทรพงศ์ ทุนแรง,84172@tmbbank.com,037421764,สาขา|,สระแก้ว|เมืองสระแก้ว,0000000841,สาขาสระแก้ว (ถนนสุวรรณศร),9280,000008,ผู้จัดการสาขา,841,สาขาสระแก้ว (ถนนสุวรรณศร)
C,84196,นางสาว ธาริณี จันทะสาร,84196@tmbbank.com,037449193-4,สาขา|,สระแก้ว|อรัญประเทศ,0000000338,สาขาอรัญประเทศ,9280,003075,เจ้าหน้าที่ - สินเชื่อรถยนต์,338,สาขาอรัญประเทศ
C,84207,นางสาว วัชราภรณ์ การดี,84207@tmbbank.com,037223505-7,สาขา|,สระแก้ว|อรัญประเทศ,0000000338,สาขาอรัญประเทศ,9280,002737,ผู้ช่วยเจ้าหน้าที่ส่งเสริมธุรกิจสาขา,338,สาขาอรัญประเทศ
