FLAG,EMPLOYEE_ID
D,17572
D,27247
D,28318
D,41154
D,42092
D,44195
D,45619
D,45915
D,46413
D,47773
D,48382
D,48951
D,49738
D,51811
D,52042
D,53270
D,53408
D,53569
D,53610
D,53818
D,54018
D,54235
D,54437
D,55022
D,55897
D,56216
D,56353
D,56644
D,56807
D,56844
D,56893
D,57064
D,57238
D,57258
D,57282
D,57391
D,57418
D,57565
D,57583
D,57586
D,57625
D,57649
D,57822
D,57832
D,57909
D,58105
D,58204
D,58205
D,58230
D,58232
D,58237
D,58246
D,58252
D,58253
D,58260
D,58300
D,58327
D,58341
D,58350
D,58374
D,58466
D,58476
D,81497
D,85120
D,85384
D,85411
D,85544
D,87036
D,87342
D,88134
D,95077
D,95349
D,95385
D,95388
D,95389
D,95396
D,95543
D,95630
D,95686
D,95694
D,97304
D,TA001
