FLAG,EMPLOYEE_ID,FULL_NAME,EMAIL,PHONE_NO,WORKPLACE,WORKAREA,DEPARTMENT_ID,DEPARTMENT_DESC_TH,COST_CODE,JOB_CODE,JOB_NAME_TH,SECT_CODE,SECT_NAME_TH
C,52566,นาย จารุวุฒิ จันทราภรณ์,52566@tmbbank.com,022423699,สำนักงานใหญ่ ชั้น 17A|,กรุงเทพมหานคร|จอมพล,0402400599,ประจำ คุณภาพบริการและการดำเนินงานผลิตภัณฑ์สินเชื่อรายย่อย,5489,001982,ผู้จัดการอาวุโสงานผลิตภัณฑ์ - การดำเนินงานผลิตภัณฑ์,000,
A,54625,นาย ตัถย์ทยา ชินธเนศ,54625@tmbbank.com,,สำนักงานใหญ่ ชั้น 9A|,กรุงเทพมหานคร|จตุจักร,1400200699,ประจำ โซลูชั่นระบบงาน ด้าน Technology Service,1709,000455,Senior Technical Analyst,000,
A,54655,นาย รัชนันท์ งามสวย,54655@tmbbank.com,,สำนักงานใหญ่ ชั้น 2B|,กรุงเทพมหานคร|จตุจักร,1000000299,ประจำ บุคลากรและธุรกิจสัมพันธ์ 2,4629,000495,ผู้เชี่ยวชาญ- บุคลากรและธุรกิจสัมพันธ์,000,
A,54780,นางสาว ดาวรัตน์ เกิดลาภอนันต์,54780@tmbbank.com,,สำนักงานใหญ่ ชั้น 12B|,กรุงเทพมหานคร|จตุจักร,1400400434,ระบบรายงานและการค้นหาข้อมูล,2046,000155,นักวิเคราะห์ธุรกิจ,000,
