FLAG,EMPLOYEE_ID
D,51674
D,51883
D,51907
D,52199
D,52405
D,52414
D,52498
D,52688
D,52863
D,52886
D,52908
D,80160
D,80691
D,81360
D,81380
D,81510
D,81511
D,81546
D,13717
D,17930
D,18355
D,24869
D,28129
D,28502
D,28751
D,29792
D,30041
D,30156
D,30199
D,31610
D,32917
D,33252
D,33949
D,41015
D,41445
D,42465
D,44307
D,44328
D,45066
D,45275
D,45572
D,45833
D,46044
D,46667
D,46685
D,46738
D,47125
D,47786
D,48015
D,48200
D,48375
D,48693
D,48875
D,49231
D,49385
D,06093
D,50311
D,50438
D,50474
