FLAG,EMPLOYEE_ID,FULL_NAME,EMAIL,PHONE_NO,WORKPLACE,WORKAREA,DEPARTMENT_ID,DEPARTMENT_DESC_TH,COST_CODE,JOB_CODE,JOB_NAME_TH,SECT_CODE,SECT_NAME_TH
C,41356,นาย ศิริวัฒน์ ชนะเพีย,41356@tmbbank.com,,สาขา|,พระนครศรีอยุธยา|พระนครศรีอยุธยา,0000000849,สาขาเซ็นทรัล อยุธยา,7470,001925,ผู้ช่วยผู้จัดการสาขา,849,สาขาเซ็นทรัล อยุธยา
C,48145,นาย ทักษ์ดนัย เพ็งเทียง,48145@tmbbank.com,,สาขา|,พระนครศรีอยุธยา|พระนครศรีอยุธยา,0000000849,สาขาเซ็นทรัล อยุธยา,7470,002737,ผู้ช่วยเจ้าหน้าที่ส่งเสริมธุรกิจสาขา,849,สาขาเซ็นทรัล อยุธยา
C,56085,นางสาว เจนจิรา พรมหงษ์,56085@tmbbank.com,,สาขา|,พระนครศรีอยุธยา|พระนครศรีอยุธยา,0000000849,สาขาเซ็นทรัล อยุธยา,7470,000401,เจ้าหน้าที่บริการลูกค้า,849,สาขาเซ็นทรัล อยุธยา
C,56184,นางสาว ประภัสสร สาหร่าย,56184@tmbbank.com,,สาขา|,พระนครศรีอยุธยา|พระนครศรีอยุธยา,0000000849,สาขาเซ็นทรัล อยุธยา,7470,000401,เจ้าหน้าที่บริการลูกค้า,849,สาขาเซ็นทรัล อยุธยา
C,84186,นางสาว กาญจนา ไชยบุรุษ,84186@tmbbank.com,038515190,สาขา|,พระนครศรีอยุธยา|พระนครศรีอยุธยา,0000000849,สาขาเซ็นทรัล อยุธยา,7470,001925,ผู้ช่วยผู้จัดการสาขา,849,สาขาเซ็นทรัล อยุธยา
C,87625,นาย โยอิ บุญที,87625@tmbbank.com,0 3571 9710-2,สาขา|,พระนครศรีอยุธยา|พระนครศรีอยุธยา,0000000849,สาขาเซ็นทรัล อยุธยา,7470,002737,ผู้ช่วยเจ้าหน้าที่ส่งเสริมธุรกิจสาขา,849,สาขาเซ็นทรัล อยุธยา
