FLAG,EMPLOYEE_ID,FULL_NAME,EMAIL,PHONE_NO,WORKPLACE,WORKAREA,DEPARTMENT_ID,DEPARTMENT_DESC_TH,COST_CODE,JOB_CODE,JOB_NAME_TH,SECT_CODE,SECT_NAME_TH
C,11691,นางสาว กรรนิกา อรุณศิริวัฒน์,11691@tmbbank.com,024592247,สาขา|,กรุงเทพมหานคร|บางพลัด,0000000723,สาขาถนนสิรินธร,6930,001925,ผู้ช่วยผู้จัดการสาขา,723,สาขาถนนสิรินธร
C,17605,นางสาว สุมาลี อาจใหญ่,17605@tmbbank.com,023835918-19,สาขา|,สมุทรปราการ|เมืองสมุทรปราการ,0000000950,สาขานิคมอุตสาหกรรมบางปู,9220,001925,ผู้ช่วยผู้จัดการสาขา,950,สาขานิคมอุตสาหกรรมบางปู
C,44781,นางสาว กรกนก ทองส่งแสง,44781@tmbbank.com,,สาขา|,ปัตตานี|เมืองปัตตานี,0000000726,สาขาบิ๊กซี ปัตตานี,7870,000401,เจ้าหน้าที่บริการลูกค้า,726,สาขาบิ๊กซี ปัตตานี
C,46195,นาง เรไร ทองพูล,46195@tmbbank.com,,สาขา|,สมุทรปราการ|เมืองสมุทรปราการ,0000000192,สาขาหนามแดง,9220,002736,เจ้าหน้าที่ส่งเสริมธุรกิจสาขา,192,สาขาหนามแดง
C,46393,นางสาว กัญญารัตน์ ฝั้นใจ,46393@tmbbank.com,,สาขา|,ลำพูน|ลำพูน,0000000747,สาขาลำพูน (ถนนอินทยงยศ),7120,000401,เจ้าหน้าที่บริการลูกค้า,747,สาขาลำพูน (ถนนอินทยงยศ)
C,54559,นาย อัมพุช ทัศน์เจริญพร,54559@tmbbank.com,,สาขา|,กรุงเทพมหานคร|บางกอกน้อย,0000000085,สาขาศิริราช,6930,000401,เจ้าหน้าที่บริการลูกค้า,085,สาขาศิริราช
C,82599,นางสาว กัณฐิกา ศุภประเสริฐศิลป์,82599@tmbbank.com,024472897,สาขา|,กรุงเทพมหานคร|บางพลัด,0000000723,สาขาถนนสิรินธร,6930,002737,ผู้ช่วยเจ้าหน้าที่ส่งเสริมธุรกิจสาขา,723,สาขาถนนสิรินธร
C,83696,นาย ธนโชติ ศรีธง,83696@tmbbank.com,053511860,สาขา|,ตาก|แม่สอด,0000000414,สาขาแม่สอด,7160,000008,ผู้จัดการสาขา,414,สาขาแม่สอด
C,83698,นาง ศิริพร เดชดี,83698@tmbbank.com,053241248-9,สาขา|,ลำพูน|ลำพูน,0000000747,สาขาลำพูน (ถนนอินทยงยศ),7120,002735,เจ้าหน้าที่อาวุโสส่งเสริมธุรกิจสาขา,747,สาขาลำพูน (ถนนอินทยงยศ)
C,84880,นางสาว นริศรา ดือราแม,84880@tmbbank.com,073338004,สาขา|,ยะลา|เบตง,0000000724,สาขาเบตง,7870,001925,ผู้ช่วยผู้จัดการสาขา,724,สาขาเบตง
C,84881,นางสาว อาลิยา กูดุส,84881@tmbbank.com,073335951,สาขา|,ปัตตานี|เมืองปัตตานี,0000000317,สาขาปัตตานี,7870,003074,เจ้าหน้าที่อาวุโส - สินเชื่อรถยนต์,317,สาขาปัตตานี
C,84883,นางสาว อัจฉริน กิจถาวร,84883@tmbbank.com,073335951,สาขา|,ปัตตานี|เมืองปัตตานี,0000000317,สาขาปัตตานี,7870,003072,เจ้าหน้าที่อาวุโส - ส่งเสริมการลงทุน,317,สาขาปัตตานี
C,84884,นางสาว อัสมา ดาโต๊ะ,84884@tmbbank.com,073335949-1,สาขา|,ปัตตานี|เมืองปัตตานี,0000000317,สาขาปัตตานี,7870,003072,เจ้าหน้าที่อาวุโส - ส่งเสริมการลงทุน,317,สาขาปัตตานี
C,84886,นาย นูฮาตัน ศิริอุมากุล,84886@tmbbank.com,0 7333 5950-1,สาขา|,ปัตตานี|เมืองปัตตานี,0000000726,สาขาบิ๊กซี ปัตตานี,7870,003072,เจ้าหน้าที่อาวุโส - ส่งเสริมการลงทุน,726,สาขาบิ๊กซี ปัตตานี
C,84887,นางสาว พิชญ์วดี สุขสถาน,84887@tmbbank.com,0 7333 5950-1,สาขา|,นราธิวาส|เมืองนราธิวาส,0000000394,สาขานราธิวาส,7870,002736,เจ้าหน้าที่ส่งเสริมธุรกิจสาขา,394,สาขานราธิวาส
C,85277,นาย สุรชัย คำตัน,85277@tmbbank.com,053510371,สาขา|,ลำพูน|เมือง,0000000600,สาขาบิ๊กซี ลำพูน,7120,002737,ผู้ช่วยเจ้าหน้าที่ส่งเสริมธุรกิจสาขา,600,สาขาบิ๊กซี ลำพูน
C,85618,นางสาว ภคมน โพธิยก,85618@tmbbank.com,(073) 335-950-1,สาขา|,ปัตตานี|เมืองปัตตานี,0000000317,สาขาปัตตานี,7870,002735,เจ้าหน้าที่อาวุโสส่งเสริมธุรกิจสาขา,317,สาขาปัตตานี
C,85702,นางสาว ฐิติมา แก้วปิ่นทอง,85702@tmbbank.com,0535103462,สาขา|,เชียงใหม่|เมือง,0000000403,สาขาตลาดหนองหอย-เชียงใหม่,7120,002737,ผู้ช่วยเจ้าหน้าที่ส่งเสริมธุรกิจสาขา,403,สาขาตลาดหนองหอย-เชียงใหม่
C,85854,นางสาว วนิดา อำพันธ์,85854@tmbbank.com,02-3240360,สาขา|,สมุทรปราการ|เมืองสมุทรปราการ,0000000950,สาขานิคมอุตสาหกรรมบางปู,9220,002737,ผู้ช่วยเจ้าหน้าที่ส่งเสริมธุรกิจสาขา,950,สาขานิคมอุตสาหกรรมบางปู
A,BBM03,นางสาว วิไลพร ศรีเสมอ,BBM03@tmbbank.com,,สำนักงานใหญ่|13A,|ดินแดง,0270200000,บริหารความสัมพันธ์ลูกค้าบรรษัทธุรกิจ 2,1070,002957,ลูกจ้างตามสัญญาบริการ บริหารความสัมพันธ์ลูกค้าบรรษัทธุรกิจ,000,
