FLAG,EMPLOYEE_ID,FULL_NAME,EMAIL,PHONE_NO,WORKPLACE,WORKAREA,DEPARTMENT_ID,DEPARTMENT_DESC_TH,COST_CODE,JOB_CODE,JOB_NAME_TH,SECT_CODE,SECT_NAME_TH
A,14149,นางสาว ชื่นกมล เขียวแก้ว,14149@tmbbank.com,022992305,สำนักงานใหญ่ ชั้น 29A|,กรุงเทพมหานคร|จตุจักร,0500500032,สนับสนุนงานกฎหมายและคดี,4731,001821,ผู้เชี่ยวชาญ -  สนับสนุนงานกฎหมายและคดี,000,
A,57603,นาย ธีรภัทร พงศ์ศิริถาวร,57603@tmbbank.com,,สำนักงานใหญ่ ชั้น 14A|,กรุงเทพมหานคร|จตุจักร,0250400399,ประจำ บริหารความสัมพันธ์ลูกค้าบรรษัทธุรกิจ 2-3,5569,000562,ผู้บริหารความสัมพันธ์,000,
