FLAG,EMPLOYEE_ID
D,05259
D,05957
D,12546
D,15041
D,16467
D,20728
D,21059
D,24617
D,27815
D,28018
D,28072
D,291970
D,291973
D,307909
D,32852
D,32970
D,34096
D,34248
D,34284
D,40516
D,41482
D,42045
D,42568
D,43587
D,43637
D,43967
D,44044
D,44764
D,44808
D,45080
D,45228
D,45872
D,46226
D,47118
D,47224
D,47671
D,47885
D,48298
D,48360
D,48767
D,48948
D,49142
D,49490
D,49621
D,49997
D,50148
D,50491
D,50610
D,50815
D,50902
D,51031
D,51296
D,51460
D,51516
D,51531
D,51579
D,51861
D,52068
D,52312
D,52587
D,52617
D,52768
D,52887
D,52999
D,53069
D,53175
D,53186
D,53231
D,53241
D,53268
D,53286
D,53319
D,53381
D,53435
D,53467
D,53476
D,53484
D,53496
D,53534
D,53546
D,53568
D,53587
D,53654
D,53727
D,53757
D,53761
D,53809
D,53815
D,53873
D,53891
D,53896
D,54089
D,54123
D,54247
D,54253
D,54274
D,54295
D,54334
D,54346
D,54435
D,54520
D,54645
D,54701
D,54734
D,54759
D,54772
D,54788
D,54812
D,54863
D,54869
D,54945
D,54986
D,55032
D,55037
D,55059
D,55069
D,55079
D,55089
D,55104
D,55109
D,55138
D,55147
D,55206
D,55210
D,55216
D,55225
D,55251
D,55252
D,55258
D,55313
D,55319
D,55324
D,55327
D,55345
D,55360
D,55370
D,55381
D,55385
D,55404
D,55420
D,55442
D,55489
D,55503
D,55512
D,55524
D,55542
D,55549
D,55551
D,55553
D,55557
D,55581
D,55593
D,55596
D,55611
D,55632
D,55634
D,55653
D,55662
D,55665
D,55666
D,55700
D,55711
D,55717
D,55730
D,55760
D,55761
D,55767
D,55807
D,55865
D,55882
D,55911
D,55913
D,55924
D,55927
D,55928
D,55938
D,55940
D,55951
D,55953
D,55964
D,55966
D,56002
D,56016
D,56026
D,56059
D,56092
D,56175
D,56195
D,56198
D,56215
D,56231
D,80153
D,80266
D,80275
D,80414
D,80585
D,80637
D,80723
D,80848
D,80863
D,81429
D,81459
D,82325
D,82398
D,82583
D,82585
D,82714
D,82732
D,82859
D,82871
D,83013
D,83048
D,83260
D,83484
D,83500
D,83659
D,83758
D,83833
D,84056
D,84099
D,84180
D,84275
D,84340
D,84527
D,84529
D,84817
D,84853
D,85255
D,85306
D,85308
D,85613
D,85741
D,85755
D,85916
D,86630
D,86701
D,86809
D,86820
D,86866
D,86986
D,87616
D,87623
D,95053
D,95070
D,95153
D,95236
D,97172
D,CBS02
D,CRM04
D,CSS06
D,SLC01
D,ULC03
