FLAG,EMPLOYEE_ID
D,11109
D,11490
D,18621
D,20078
D,21252
D,21456
D,22166
D,22521
D,22573
D,23113
D,25309
D,25514
D,25692
D,26966
D,27098
D,28538
D,30534
D,30589
D,32735
D,32937
D,34098
D,40099
D,40165
D,40933
D,41574
D,41867
D,42204
D,42428
D,42513
D,43078
D,43153
D,43249
D,43605
D,43610
D,43851
D,44734
D,44757
D,44785
D,44946
D,45301
D,45545
D,45754
D,46031
D,46089
D,46336
D,46950
D,47058
D,47363
D,47454
D,47935
D,48117
D,48137
D,48216
D,48460
D,49114
D,49144
D,49468
D,49792
D,49845
D,50063
D,50178
D,50372
D,50680
D,50696
D,50723
D,50834
D,50841
D,51225
D,51353
D,51407
D,51743
D,52128
D,52182
D,52225
D,52397
D,52416
D,52436
D,52515
D,52521
D,52564
D,52596
D,52657
D,52712
D,52726
D,52983
D,53018
D,53024
D,53030
D,53042
D,53071
D,53084
D,53170
D,53258
D,53274
D,53294
D,53315
D,53371
D,53380
D,53445
D,53527
D,53627
D,53629
D,53682
D,53692
D,53958
D,54047
D,54142
D,54150
D,54151
D,54344
D,54430
D,54453
D,54592
D,54603
D,54625
D,54638
D,54655
D,54822
D,54861
D,54934
D,54936
D,54939
D,55086
D,55337
D,55352
D,55424
D,55458
D,55525
D,55526
D,55571
D,55576
D,55580
D,55595
D,55633
D,55676
D,55808
D,55813
D,55829
D,55835
D,55847
D,55848
D,55853
D,55867
D,55876
D,55889
D,55900
D,55903
D,55905
D,55915
D,55937
D,55953
D,55956
D,55984
D,56037
D,56048
D,56077
D,56100
D,56122
D,56131
D,56153
D,56156
D,56180
D,56205
D,56262
D,56268
D,56307
D,56316
D,56341
D,56358
D,56363
D,56366
D,56409
D,56453
D,56454
D,56469
D,56481
D,56588
D,56593
D,56595
D,56600
D,56603
D,56607
D,56611
D,56659
D,56660
D,56683
D,56690
D,56703
D,56717
D,56718
D,56722
D,56738
D,56741
D,56759
D,56762
D,56774
D,56846
D,56912
D,56932
D,80137
D,80204
D,80309
D,80460
D,80577
D,80623
D,80707
D,80766
D,80799
D,80870
D,80886
D,80987
D,80989
D,81065
D,81350
D,81562
D,81733
D,81958
D,81999
D,82295
D,82988
D,83129
D,83264
D,83502
D,83922
D,84011
D,84071
D,84351
D,84526
D,84578
D,84622
D,84635
D,84652
D,84849
D,84869
D,84988
D,85117
D,85128
D,85222
D,85257
D,85337
D,85563
D,85573
D,85577
D,85578
D,85749
D,85827
D,85835
D,86018
D,86037
D,86065
D,86363
D,86416
D,86955
D,87550
D,87629
D,87723
D,87768
D,87784
D,87884
D,87956
D,88121
D,88567
D,89114
D,95115
D,95150
D,95359
D,95370
D,95375
D,97015
D,97042
D,97174
D,97207
D,97215
D,97288
D,97327
D,CBS01
D,ISP03
D,TMB12158109
