FLAG,EMPLOYEE_ID
D,07730
D,08161
D,11992
D,13006
D,13364
D,15072
D,16407
D,17285
D,20109
D,20387
D,21517
D,21781
D,22754
D,23537
D,23538
D,24085
D,24794
D,27272
D,27729
D,28017
D,28567
D,28675
D,29739
D,30216
D,30542
D,30635
D,31021
D,31699
D,32333
D,32540
D,32887
D,33054
D,33870
D,40016
D,40297
D,40385
D,41098
D,42232
D,42301
D,42317
D,42322
D,42867
D,42997
D,43025
D,43632
D,44084
D,44542
D,44585
D,45183
D,45409
D,45527
D,45960
D,46170
D,46231
D,46409
D,46455
D,46594
D,46712
D,46875
D,46888
D,47049
D,47181
D,47405
D,47455
D,47784
D,47860
D,47981
D,47983
D,48541
D,48760
D,48825
D,48873
D,49062
D,49471
D,49639
D,49663
D,49979
D,50013
D,50110
D,50150
D,50223
D,50291
D,50320
D,50560
D,50564
D,50856
D,51022
D,51487
D,51522
D,51756
D,51785
D,51912
D,52070
D,52117
D,52186
D,52248
D,52344
D,52362
D,52366
D,52374
D,52404
D,52431
D,52619
D,52638
D,52665
D,52734
D,52802
D,52877
D,53026
D,53053
D,53196
D,53239
D,53365
D,53404
D,53433
D,53442
D,53505
D,53564
D,53566
D,53573
D,53598
D,53652
D,53655
D,53667
D,53680
D,53686
D,53687
D,53737
D,53760
D,53830
D,53927
D,53928
D,54064
D,54183
D,54197
D,54223
D,54225
D,54277
D,54280
D,54322
D,54352
D,54426
D,54439
D,54466
D,54469
D,54525
D,54531
D,54551
D,54575
D,54576
D,54586
D,54654
D,54698
D,54728
D,55019
D,55123
D,55136
D,55181
D,55281
D,55322
D,55385
D,55398
D,55492
D,55587
D,55629
D,55652
D,55687
D,55692
D,55693
D,55697
D,55709
D,55726
D,55727
D,55746
D,55758
D,55818
D,55822
D,55831
D,55845
D,55869
D,55914
D,55952
D,55981
D,55995
D,55996
D,56020
D,56035
D,56047
D,56068
D,56101
D,56116
D,56125
D,56200
D,56258
D,56340
D,56343
D,56351
D,56377
D,56426
D,56437
D,56441
D,56460
D,56497
D,56502
D,56521
D,56535
D,56538
D,56591
D,56658
D,56691
D,56698
D,56710
D,56719
D,56747
D,56755
D,56767
D,56788
D,56789
D,56851
D,56860
D,56866
D,56869
D,56881
D,56891
D,56904
D,56907
D,56913
D,56922
D,56923
D,56929
D,56931
D,56942
D,56944
D,56956
D,56957
D,57035
D,57070
D,57078
D,57140
D,57176
D,57187
D,57190
D,57232
D,57252
D,57260
D,57279
D,57290
D,57301
D,57302
D,57312
D,57351
D,753957
D,80049
D,80218
D,80313
D,80451
D,80581
D,80597
D,80671
D,80698
D,80740
D,80769
D,80902
D,80959
D,81067
D,81344
D,81464
D,81492
D,81808
D,81930
D,81956
D,82010
D,82060
D,82093
D,82175
D,82179
D,82208
D,82321
D,82430
D,82442
D,82479
D,82582
D,82979
D,83053
D,83096
D,83231
D,83330
D,83340
D,83489
D,83507
D,83623
D,83643
D,83695
D,83734
D,83779
D,83794
D,83916
D,83921
D,83979
D,84015
D,84087
D,84142
D,84177
D,84372
D,84811
D,84908
D,85312
D,85319
D,85345
D,85441
D,85680
D,85681
D,85697
D,85723
D,85971
D,86019
D,86286
D,86618
D,86625
D,86640
D,86699
D,86880
D,87100
D,87378
D,87453
D,87502
D,87517
D,87522
D,87532
D,87544
D,87546
D,87983
D,88108
D,88152
D,88153
D,88384
D,88498
D,88541
D,88566
D,88611
D,89072
D,89130
D,89188
D,95265
D,95362
D,97053
D,97075
D,97137
D,97244
D,97247
D,97255
D,97307
D,CBM02
D,FIS02
D,ITI24
D,ITI27
D,ITI32
D,ITI71
D,SME40
