FLAG,EMPLOYEE_ID,FULL_NAME,EMAIL,PHONE_NO,WORKPLACE,WORKAREA,DEPARTMENT_ID,DEPARTMENT_DESC_TH,COST_CODE,JOB_CODE,JOB_NAME_TH,SECT_CODE,SECT_NAME_TH
A,58377,นาย พีระภพ ไชยพรม,58377@tmbbank.com,,สำนักงานใหญ่ ชั้น 30A|,กรุงเทพมหานคร|จตุจักร,0101100431,โซลูชั่นระบบงาน ด้านนวัตกรรม Digital,2111,003005,Software Engineer,000,
A,58508,นาย ณัฐกรณ์ ตรีวุฒิ,58508@tmbbank.com,,สำนักงานใหญ่ ชั้น 9A|,กรุงเทพมหานคร|จตุจักร,1400500299,โซลูชั่นระบบงานธุรกรรมสินเชื่อและเก็บเงินรายย่อย,5109,003005,Software Engineer,000,
A,95695,นางสาว มาลิน เซี่ยะ,95695@tmbbank.com,,สำนักงานใหญ่|32A,|บ้านฉาง,0100600199,ประจำ Data Analytics COE - 1,4719,003457,Data Interns,000,
A,95696,นางสาว นิภาพร รุจิปัญญกุล,95696@tmbbank.com,,สำนักงานใหญ่|16A,|บางทราย,1100200899,ประจำ บริหารความสัมพันธ์และประสบการณ์ลูกค้ารายบุคคล,2289,003457,Data Interns,000,
A,95697,นางสาว พัชรมนฑ์ นำวายกอ,95697@tmbbank.com,,สำนักงานใหญ่|16A,|แประ,1100200899,ประจำ บริหารความสัมพันธ์และประสบการณ์ลูกค้ารายบุคคล,2289,003457,Data Interns,000,
A,95701,นาย กฤษฏิ์พล กิตตินาถไกรวัฒน์,95701@tmbbank.com,,สำนักงานใหญ่|16A,|บางพูด,1100200899,ประจำ บริหารความสัมพันธ์และประสบการณ์ลูกค้ารายบุคคล,2289,003457,Data Interns,000,
A,95702,นางสาว พิมพ์พิสุทธิ์ เพ็ญพฤกษากุล,95702@tmbbank.com,,สำนักงานใหญ่|16A,|คลองสอง,1100200899,ประจำ บริหารความสัมพันธ์และประสบการณ์ลูกค้ารายบุคคล,2289,003457,Data Interns,000,
A,95703,นาย ปารมี โฆษิตกิตติวณิชย์,95703@tmbbank.com,,สำนักงานใหญ่|16A,|คลองตันเหนือ,1100200899,ประจำ บริหารความสัมพันธ์และประสบการณ์ลูกค้ารายบุคคล,2289,003457,Data Interns,000,
A,95704,นาย ธนัทเสฎฐ์ ไตรสุทธิเกษม,95704@tmbbank.com,,สำนักงานใหญ่|16A,|พระปฐมเจดีย์,1100200899,ประจำ บริหารความสัมพันธ์และประสบการณ์ลูกค้ารายบุคคล,2289,003457,Data Interns,000,
A,95705,นาย ปัณณ์ ดำรงรัตน์นุวงศ์,95705@tmbbank.com,,สำนักงานใหญ่|16A,|บ้านพึ่ง,1100200899,ประจำ บริหารความสัมพันธ์และประสบการณ์ลูกค้ารายบุคคล,2289,003457,Data Interns,000,
A,95706,นาย พีรณัฐ แตงอ่อน,95706@tmbbank.com,,สำนักงานใหญ่|16A,|ประชาธิปัตย์,1100200899,ประจำ บริหารความสัมพันธ์และประสบการณ์ลูกค้ารายบุคคล,2289,003457,Data Interns,000,
A,95707,นางสาว กานต์พิชชา อำนรรฆกิตติกุล,95707@tmbbank.com,,สำนักงานใหญ่|16A,|บางประกอก,1100200899,ประจำ บริหารความสัมพันธ์และประสบการณ์ลูกค้ารายบุคคล,2289,003457,Data Interns,000,
A,95708,นาย กิตติภูมิ อ่วมทอน,95708@tmbbank.com,,สำนักงานใหญ่|16A,|บ้านหัน,1100200899,ประจำ บริหารความสัมพันธ์และประสบการณ์ลูกค้ารายบุคคล,2289,003457,Data Interns,000,
A,95709,นางสาว ชัญญานุช สุธีรยงประเสริฐ,95709@tmbbank.com,,สำนักงานใหญ่|16A,|ตลาดเหนือ,1100200899,ประจำ บริหารความสัมพันธ์และประสบการณ์ลูกค้ารายบุคคล,2289,003457,Data Interns,000,
A,95712,นางสาว ชุติภา อนันตรัมพร,95712@tmbbank.com,,สำนักงานใหญ่|16A,|ท่าแร้ง,1100200899,ประจำ บริหารความสัมพันธ์และประสบการณ์ลูกค้ารายบุคคล,2289,003457,Data Interns,000,
A,95713,นาย ชยากร งามโอฬารเลิศ,95713@tmbbank.com,,สำนักงานใหญ่|21A,|ท่าข้าม,0101010299,ประจำ Software Engineer 1,1519,003120,Tech Interns,000,
A,95714,นาย ศิรพัช เพ็ชรสกุล,95714@tmbbank.com,,สำนักงานใหญ่|19A,|อนุสาวรีย์,0101010299,ประจำ Software Engineer 1,1519,003120,Tech Interns,000,
A,95715,นาย นิติภูมิ สุทธไชย,95715@tmbbank.com,,สำนักงานใหญ่|19A,|อ้อมน้อย,0101010499,ประจำ ตรวจสอบคุณภาพเทคโนโลยีสารสนเทศ,2919,003120,Tech Interns,000,
A,95718,นางสาว ณัฐธิดา มีบุญ,95718@tmbbank.com,,สำนักงานใหญ่|19A,|น้ำน้อย,0101010499,ประจำ ตรวจสอบคุณภาพเทคโนโลยีสารสนเทศ,2919,003120,Tech Interns,000,
A,95719,นางสาว กัลยวรรธน์ ชื่นชมรติมงคล,95719@tmbbank.com,,สำนักงานใหญ่|30A,|สายไหม,0101100199,ประจำ OneApp Platform,2039,003120,Tech Interns,000,
A,95720,นางสาว ธนวรรณ วงศ์เพชรชารัต,95720@tmbbank.com,,สำนักงานใหญ่|30A,|หัวหมาก,0101100199,ประจำ OneApp Platform,2039,003120,Tech Interns,000,
A,95721,นาย ธนิสร มังกร,95721@tmbbank.com,,สำนักงานใหญ่|30A,|บ้านบึง,0101100199,ประจำ OneApp Platform,2039,003120,Tech Interns,000,
A,95729,นาย พินิจ สมเสมียน,95729@tmbbank.com,,Phetburi Office Floor 8|,|ถนนเพชรบุรี,1500200234,ดำเนินการและตรวจสอบคำขอสินเชื่อ,3554,003278,พนักงานสนับสนุนปฏิบัติการและบริการ,000,
A,95735,นาย นฤบดี พยุงชัยรัตน์,95735@tmbbank.com,,สำนักงานใหญ่|1A,|บางซื่อ,1500200234,ดำเนินการและตรวจสอบคำขอสินเชื่อ,3554,003278,พนักงานสนับสนุนปฏิบัติการและบริการ,000,
A,95736,นาย ธนสิทธิ์ ชัยศร,95736@tmbbank.com,,Headquarter Floor Parking2|,|นครไชยศรี,1500200234,ดำเนินการและตรวจสอบคำขอสินเชื่อ,3554,003278,พนักงานสนับสนุนปฏิบัติการและบริการ,000,
A,95737,นาย สุรพรรณ อุ้มปรีชา,95737@tmbbank.com,,สำนักงานใหญ่|1A,|ดอนเมือง,1500200234,ดำเนินการและตรวจสอบคำขอสินเชื่อ,3554,003278,พนักงานสนับสนุนปฏิบัติการและบริการ,000,
A,95738,นางสาว สุภาพร โยธา,95738@tmbbank.com,,สำนักงานใหญ่|22A,|เขาชะงุ้ม,0110400000,กลยุทธ์และบริหารคุณภาพสินเชื่อ - ที่ปรึกษาบริหารการเงินพิเศษ,1074,003059,ลูกจ้างตามสัญญาบริการ กลยุทธ์และบริหารคุณภาพสินเชื่อ,000,
A,95739,นางสาว ขวัญเกล้า ดาวรุ่งเรือง,95739@tmbbank.com,,สำนักงานใหญ่|22A,|เนินพระ,0110400000,กลยุทธ์และบริหารคุณภาพสินเชื่อ - ที่ปรึกษาบริหารการเงินพิเศษ,1074,003059,ลูกจ้างตามสัญญาบริการ กลยุทธ์และบริหารคุณภาพสินเชื่อ,000,
A,95740,นางสาว อทิตยา ศรีไชยบาล,95740@tmbbank.com,,สำนักงานใหญ่|22A,|โคกสำราญ,0110400000,กลยุทธ์และบริหารคุณภาพสินเชื่อ - ที่ปรึกษาบริหารการเงินพิเศษ,1074,003059,ลูกจ้างตามสัญญาบริการ กลยุทธ์และบริหารคุณภาพสินเชื่อ,000,
A,95741,นางสาว นุศรา ช่อไสว,95741@tmbbank.com,,สำนักงานใหญ่|22A,|แม่ค้ามี,0110400000,กลยุทธ์และบริหารคุณภาพสินเชื่อ - ที่ปรึกษาบริหารการเงินพิเศษ,1074,003059,ลูกจ้างตามสัญญาบริการ กลยุทธ์และบริหารคุณภาพสินเชื่อ,000,
