FLAG,EMPLOYEE_ID,FULL_NAME,EMAIL,PHONE_NO,WORKPLACE,WORKAREA,DEPARTMENT_ID,DEPARTMENT_DESC_TH,COST_CODE,JOB_CODE,JOB_NAME_TH,SECT_CODE,SECT_NAME_TH
C,10427,นางสาว สาริณี แซ่อึ้ง,10427@tmbbank.com,02-828-2828,สำนักงานใหญ่|12A,กรุงเทพมหานคร|จตุจักร,0201400399,ประจำ บริการลูกค้าธุรกิจ บริการลูกค้าธุรกิจสัมพันธ์,7539,002396,ผู้จัดการ – บริหารจัดการข้อร้องเรียนลูกค้าธุรกิจสัมพันธ์,000,
C,20065,นางสาว พัดชา เกิดมี,20065@tmbbank.com,022991111  5021,สำนักงานใหญ่|12A,กรุงเทพมหานคร|จตุจักร,0201400399,ประจำ บริการลูกค้าธุรกิจ บริการลูกค้าธุรกิจสัมพันธ์,7539,002396,ผู้จัดการ – บริหารจัดการข้อร้องเรียนลูกค้าธุรกิจสัมพันธ์,000,
C,20646,นางสาว จุฑารัตน์ ภูรับ,20646@tmbbank.com,025/309-5601,สาขา|,กรุงเทพมหานคร|วังทองหลาง,0000000254,สาขาศรีวรา,6850,000008,ผู้จัดการสาขา,254,สาขาศรีวรา
C,21456,นาย สุกิจ มีทรัพย์สมบูรณ์,21456@tmbbank.com,022924347,สำนักงานใหญ่|19A,กรุงเทพมหานคร|จตุจักร,0440000431,สื่อสารช่องทางรวมลูกค้ารายย่อย,9641,001528,ผู้เชี่ยวชาญ - สื่อสารช่องทางรวมลูกค้ารายย่อย,000,
C,27383,นางสาว ณัฐนาภรณ์ ภูรีวัฒนะ,27383@tmbbank.com,038-367749,สาขา|,ชลบุรี|Banglamung,0000000651,สาขาเทอมินอล 21 พัทยา,9250,001925,ผู้ช่วยผู้จัดการสาขา,651,สาขาเทอมินอล 21 พัทยา
C,28018,นางสาว พิชามญชุ์ สุรี,28018@tmbbank.com,02-958-0930,สาขา|,กรุงเทพมหานคร|วังทองหลาง,0000000254,สาขาศรีวรา,6850,001925,ผู้ช่วยผู้จัดการสาขา,254,สาขาศรีวรา
C,29423,นางสาว พรพิมล พรรณเกต,29423@tmbbank.com,038437123,สาขา|,ชลบุรี|บางละมุง,0000000479,สาขาถนนพัทยากลาง,9250,001925,ผู้ช่วยผู้จัดการสาขา,479,สาขาถนนพัทยากลาง
C,44946,นางสาว กัลยา สมวงศ์,44946@tmbbank.com,,สาขา|,ชลบุรี|บางละมุง,0000000479,สาขาถนนพัทยากลาง,9250,000391,เจ้าหน้าที่บริการลูกค้าอาวุโส,479,สาขาถนนพัทยากลาง
C,46205,นางสาว รัตติยา คำทิพย์,46205@tmbbank.com,,สาขา|,ปทุมธานี|อุทัย,0000000417,สาขาอุทัย-อยุธยา,6440,000444,พนักงานลูกค้าสัมพันธ์,417,สาขาอุทัย-อยุธยา
C,46324,นางสาว จิตรานุช ดิษฐานุพงศ์,46324@tmbbank.com,025309560,สาขา|,กรุงเทพมหานคร|วังทองหลาง,0000000254,สาขาศรีวรา,6850,000391,เจ้าหน้าที่บริการลูกค้าอาวุโส,254,สาขาศรีวรา
C,50478,นางสาว สุขหรรษา กรึซิบ,50478@tmbbank.com,,สาขา|,ชลบุรี|บางละมุง,0000000479,สาขาถนนพัทยากลาง,9250,000444,พนักงานลูกค้าสัมพันธ์,479,สาขาถนนพัทยากลาง
C,50661,นางสาว พินันทา ลีกิจวัฒนะ,50661@tmbbank.com,022992650,Phetburi Office Floor 4|,กรุงเทพมหานคร|ราชเทวี,0800300199,ประจำ บริหารแพลตฟอร์มและกระบวนการสินเชื่อรถยนต์,4609,002628,ผู้เชี่ยวชาญอาวุโส - บริหารแพลตฟอร์มธุรกิจสินเชื่อรถยนต์,000,
C,50709,นาย อัครพล สะหยัง,50709@tmbbank.com,,สาขา|,กรุงเทพมหานคร|วังทองหลาง,0000000254,สาขาศรีวรา,6850,000401,เจ้าหน้าที่บริการลูกค้า,254,สาขาศรีวรา
C,50837,นางสาว โชติกา เจนจัดการ,50837@tmbbank.com,,สาขา|,ชลบุรี|บางละมุง,0000000479,สาขาถนนพัทยากลาง,9250,000444,พนักงานลูกค้าสัมพันธ์,479,สาขาถนนพัทยากลาง
C,51262,นาย วทัญญู สุขแสงสุวรรณ,51262@tmbbank.com,,สาขา|,กรุงเทพมหานคร|วังทองหลาง,0000000254,สาขาศรีวรา,6850,000403,เจ้าหน้าที่ลูกค้าสัมพันธ์,254,สาขาศรีวรา
C,51526,นางสาว รัตนาวดี ศรีบุศกร,51526@tmbbank.com,,สาขา|,ชลบุรี|Banglamung,0000000651,สาขาเทอมินอล 21 พัทยา,9250,000401,เจ้าหน้าที่บริการลูกค้า,651,สาขาเทอมินอล 21 พัทยา
C,51546,นางสาว เยาวลักษณ์ จอมคำสิงห์,51546@tmbbank.com,,สาขา|,ชลบุรี|บางละมุง,0000000479,สาขาถนนพัทยากลาง,9250,000401,เจ้าหน้าที่บริการลูกค้า,479,สาขาถนนพัทยากลาง
C,51912,นางสาว ณัฐฑริสา ขวัญสกุล,51912@tmbbank.com,,สาขา|,กรุงเทพมหานคร|วังทองหลาง,0000000254,สาขาศรีวรา,6850,000444,พนักงานลูกค้าสัมพันธ์,254,สาขาศรีวรา
C,81105,นางสาว กมลทิพย์ อินทรฑูต,81105@tmbbank.com,0-3367-4713-5,สาขา|,ชลบุรี|บางละมุง,0000000479,สาขาถนนพัทยากลาง,9250,000008,ผู้จัดการสาขา,479,สาขาถนนพัทยากลาง
C,81390,นางสาว ศิริพร เมตตาสัตย์,81390@tmbbank.com,025388466,สาขา|,กรุงเทพมหานคร|วังทองหลาง,0000000254,สาขาศรีวรา,6850,000008,ผู้จัดการสาขา,254,สาขาศรีวรา
C,81407,นางสาว ชัญญาภัค พึ่งโยธิน,81407@tmbbank.com,025387039,สาขา|,กรุงเทพมหานคร|วังทองหลาง,0000000254,สาขาศรีวรา,6850,001925,ผู้ช่วยผู้จัดการสาขา,254,สาขาศรีวรา
