FLAG,EMPLOYEE_ID
D,05595
D,07597
D,10131
D,10793
D,13535
D,17341
D,17814
D,18747
D,18799
D,23831
D,26991
D,27413
D,29688
D,29928
D,30958
D,31133
D,31547
D,32120
D,32145
D,33263
D,33363
D,34083
D,40567
D,41459
D,42124
D,44557
D,45776
D,46399
D,46561
D,46808
D,47000
D,47079
D,47237
D,47325
D,47327
D,47528
D,47626
D,47827
D,47846
D,47886
D,47964
D,48011
D,48171
D,48181
D,48629
D,48912
D,48986
D,49009
D,49240
D,49354
D,49483
D,50019
D,50176
D,50257
D,50295
D,50618
D,50627
D,50681
D,50768
D,50870
D,50917
D,50999
D,51010
D,51058
D,51235
D,51379
D,51470
D,51608
D,51736
D,51820
D,51911
D,51922
D,52000
D,52055
D,52331
D,52347
D,52427
D,52526
D,52545
D,52767
D,52841
D,52842
D,53068
D,53200
D,53201
D,53305
D,53312
D,53330
D,53337
D,53352
D,53607
D,53707
D,53801
D,53950
D,53959
D,53968
D,53971
D,53978
D,53985
D,54077
D,54462
D,54515
D,54553
D,54666
D,54754
D,54755
D,54807
D,54924
D,54929
D,54930
D,55054
D,55077
D,55119
D,55168
D,55287
D,55289
D,55307
D,55310
D,55361
D,55481
D,55518
D,55547
D,55574
D,55643
D,55686
D,55854
D,55880
D,55909
D,56010
D,56014
D,56023
D,56050
D,56051
D,56083
D,56087
D,56106
D,56109
D,56202
D,56267
D,56288
D,56315
D,56372
D,56373
D,56374
D,56474
D,56549
D,56565
D,56621
D,56632
D,56653
D,56662
D,56697
D,56716
D,56737
D,56775
D,56795
D,56796
D,56861
D,56865
D,56909
D,56914
D,56919
D,56938
D,56952
D,56958
D,56972
D,56991
D,56993
D,56994
D,57021
D,57048
D,57155
D,57170
D,57177
D,57189
D,57197
D,57203
D,57226
D,57243
D,57259
D,57287
D,57294
D,57325
D,57333
D,57336
D,57355
D,57366
D,57383
D,57420
D,57423
D,57452
D,57469
D,57484
D,57503
D,57506
D,57529
D,57557
D,57582
D,57584
D,57630
D,57641
D,57718
D,57722
D,57739
D,57758
D,57759
D,57819
D,57827
D,57853
D,57854
D,57865
D,57868
D,57880
D,57899
D,57915
D,57923
D,57934
D,57942
D,57961
D,57968
D,57971
D,57973
D,57989
D,57990
D,58002
D,58003
D,58037
D,58076
D,58092
D,58096
D,58182
D,58211
D,58236
D,80263
D,80454
D,80680
D,80858
D,81274
D,81538
D,81647
D,81818
D,82250
D,82536
D,82931
D,82985
D,83216
D,83476
D,83530
D,83650
D,83774
D,83782
D,83788
D,83843
D,84144
D,84381
D,84524
D,84542
D,84574
D,84621
D,84668
D,84706
D,84803
D,85010
D,85233
D,85420
D,85555
D,85647
D,85672
D,85949
D,85992
D,86044
D,86138
D,86281
D,86831
D,86898
D,87380
D,87755
D,87811
D,87843
D,88247
D,88398
D,88413
D,88669
D,88836
D,88856
D,95003
D,95113
D,95154
D,95289
D,95290
D,95293
D,95296
D,95298
D,95305
D,95307
D,95308
D,95317
D,95363
D,95374
D,95378
D,95382
D,95590
D,95591
D,95593
D,95606
D,95607
D,95627
D,95643
D,95657
D,97030
D,97051
D,97079
D,FLO92
D,TMB12158086
D,TTB12794
D,TTB13756
D,TTB13758
